<?xml version="1.0" encoding="utf-8"?>
<!-- Generator: Adobe Illustrator 22.0.1, SVG Export Plug-In . SVG Version: 6.00 Build 0)  -->
<svg version="1.1" id="Capa_1" xmlns="http://www.w3.org/2000/svg" xmlns:xlink="http://www.w3.org/1999/xlink" x="0px" y="0px"
	 viewBox="0 0 300 300" style="enable-background:new 0 0 300 300;" xml:space="preserve">
<style type="text/css">
	.st0{fill:#D6C424;}
	.st1{fill:#203C79;}
	.st2{fill:url(#SVGID_1_);}
	.st3{fill:#02AFBF;}
	.st4{fill:#FFFFFF;}
	.st5{fill:#CECECE;}
	.st6{fill:#2D006D;}
	.st7{fill:#5713BA;}
</style>
<path class="st0" d="M52.5,23.5v-7.9h-4.8v7.9C29.2,24.7,14.5,40.1,14.5,59c0,19.6,15.9,35.6,35.6,35.6c19.6,0,35.6-15.9,35.6-35.6
	C85.6,40.1,71,24.7,52.5,23.5z M50.1,89.7c-16.9,0-30.7-13.8-30.7-30.7s13.8-30.7,30.7-30.7C67,28.2,80.8,42,80.8,58.9
	C80.8,75.9,67,89.7,50.1,89.7z M81.2,32.6l3.8-3.1c-2.9-3.4-6.2-6.3-9.9-8.7l-2.6,4.1C75.7,27,78.7,29.6,81.2,32.6z M41.6,13.4
	c0-1.7,1.4-3.1,3.1-3.1h10.7c1.7,0,3.1,1.4,3.1,3.1v5.4h4.8v-5.4c0-4.4-3.6-7.9-7.9-7.9H44.8c-4.4,0-7.9,3.6-7.9,7.9v5.4h4.8
	L41.6,13.4L41.6,13.4z M50.1,66.4c4.1,0,7.5-3.4,7.5-7.5s-3.4-7.5-7.5-7.5s-7.5,3.4-7.5,7.5c0,1.1,0.2,2.1,0.6,3L31.4,72.8
	c-1,0.9-1.1,2.4-0.2,3.4c0.5,0.5,1.1,0.8,1.8,0.8c0.6,0,1.2-0.2,1.6-0.6l11.8-10.8C47.6,66.1,48.8,66.4,50.1,66.4z M50.1,56.3
	c1.5,0,2.7,1.2,2.7,2.7s-1.2,2.7-2.7,2.7s-2.7-1.2-2.7-2.7C47.4,57.5,48.6,56.3,50.1,56.3z M50.1,33v4.8c11.6,0,21,9.5,21,21.1
	S61.7,80,50,80c-3.5,0-6.9-0.9-9.8-2.4L36.5,81c3.9,2.4,8.5,3.8,13.5,3.8c14.3,0,25.9-11.6,25.9-25.9S64.4,33.1,50.1,33z"/>
<path class="st1" d="M152.5,23.5v-7.9h-4.8v7.9c-18.5,1.2-33.2,16.6-33.2,35.5c0,19.6,15.9,35.6,35.6,35.6
	c19.6,0,35.6-15.9,35.6-35.6C185.6,40.1,171,24.7,152.5,23.5z M150,89.7c-16.9,0-30.7-13.8-30.7-30.7s13.8-30.7,30.7-30.7
	s30.7,13.8,30.7,30.7S166.9,89.7,150,89.7z M181.1,32.6l3.8-3.1c-2.9-3.4-6.2-6.3-9.9-8.7l-2.6,4.1C175.7,27,178.6,29.6,181.1,32.6z
	 M141.6,13.4c0-1.7,1.4-3.1,3.1-3.1h10.7c1.7,0,3.1,1.4,3.1,3.1v5.4h4.8v-5.4c0-4.4-3.6-7.9-7.9-7.9h-10.7c-4.4,0-7.9,3.6-7.9,7.9
	v5.4h4.8L141.6,13.4L141.6,13.4z M150,66.4c4.1,0,7.5-3.4,7.5-7.5s-3.4-7.5-7.5-7.5s-7.5,3.4-7.5,7.5c0,1.1,0.2,2.1,0.6,3
	l-11.8,10.8c-1,0.9-1.1,2.4-0.2,3.4c0.5,0.5,1.1,0.8,1.8,0.8c0.6,0,1.2-0.2,1.6-0.6l11.8-10.8C147.5,66.1,148.7,66.4,150,66.4z
	 M150,56.3c1.5,0,2.7,1.2,2.7,2.7s-1.2,2.7-2.7,2.7s-2.7-1.2-2.7-2.7S148.5,56.3,150,56.3z M150,33v4.8c11.6,0,21,9.5,21,21.1
	S161.6,80,149.9,80c-3.5,0-6.9-0.9-9.8-2.4l-3.7,3.4c3.9,2.4,8.5,3.8,13.5,3.8c14.3,0,25.9-11.6,25.9-25.9
	C175.9,44.6,164.3,33.1,150,33z"/>
<linearGradient id="SVGID_1_" gradientUnits="userSpaceOnUse" x1="218.3441" y1="283.9603" x2="275.3441" y2="223.4603" gradientTransform="matrix(1 0 0 -1 0 302)">
	<stop  offset="0" style="stop-color:#02AFBF"/>
	<stop  offset="1" style="stop-color:#57338A"/>
</linearGradient>
<path class="st2" d="M252.4,23.5v-7.9h-4.8v7.9c-18.5,1.2-33.2,16.6-33.2,35.5c0,19.6,15.9,35.6,35.6,35.6
	c19.6,0,35.6-15.9,35.6-35.6C285.5,40.1,270.9,24.7,252.4,23.5z M250,89.7c-16.9,0-30.7-13.8-30.7-30.7s13.8-30.7,30.7-30.7
	s30.7,13.8,30.7,30.7S266.9,89.7,250,89.7z M281.1,32.6l3.8-3.1c-2.9-3.4-6.2-6.3-9.9-8.7l-2.6,4.1C275.6,27,278.6,29.6,281.1,32.6z
	 M241.5,13.4c0-1.7,1.4-3.1,3.1-3.1h10.7c1.7,0,3.1,1.4,3.1,3.1v5.4h4.8v-5.4c0-4.4-3.6-7.9-7.9-7.9h-10.7c-4.4,0-7.9,3.6-7.9,7.9
	v5.4h4.8V13.4z M250,66.4c4.1,0,7.5-3.4,7.5-7.5s-3.4-7.5-7.5-7.5s-7.5,3.4-7.5,7.5c0,1.1,0.2,2.1,0.6,3l-11.8,10.8
	c-1,0.9-1.1,2.4-0.2,3.4c0.5,0.5,1.1,0.8,1.8,0.8c0.6,0,1.2-0.2,1.6-0.6l11.8-10.8C247.5,66.1,248.7,66.4,250,66.4z M250,56.3
	c1.5,0,2.7,1.2,2.7,2.7s-1.2,2.7-2.7,2.7s-2.7-1.2-2.7-2.7S248.5,56.3,250,56.3z M250,33v4.8c11.6,0,21,9.5,21,21.1S261.6,80,250,80
	c-3.5,0-6.9-0.9-9.8-2.4l-3.7,3.4c3.9,2.4,8.5,3.8,13.5,3.8c14.3,0,25.9-11.6,25.9-25.9C275.8,44.6,264.3,33.1,250,33z"/>
<path class="st3" d="M52.5,123.5v-7.9h-4.8v7.9c-18.5,1.2-33.2,16.6-33.2,35.5c0,19.6,15.9,35.6,35.6,35.6
	c19.6,0,35.6-15.9,35.6-35.6C85.6,140.1,71,124.7,52.5,123.5z M50.1,189.7c-16.9,0-30.7-13.8-30.7-30.7s13.8-30.7,30.7-30.7
	s30.7,13.8,30.7,30.7S67,189.7,50.1,189.7z M81.2,132.6l3.8-3.1c-2.9-3.4-6.2-6.3-9.9-8.7l-2.6,4.1C75.7,127,78.7,129.6,81.2,132.6z
	 M41.6,113.4c0-1.7,1.4-3.1,3.1-3.1h10.7c1.7,0,3.1,1.4,3.1,3.1v5.4h4.8v-5.4c0-4.4-3.6-7.9-7.9-7.9H44.8c-4.4,0-7.9,3.6-7.9,7.9
	v5.4h4.8L41.6,113.4L41.6,113.4z M50.1,166.4c4.1,0,7.5-3.4,7.5-7.5s-3.4-7.5-7.5-7.5s-7.5,3.4-7.5,7.5c0,1.1,0.2,2.1,0.6,3
	l-11.8,10.8c-1,0.9-1.1,2.4-0.2,3.4c0.5,0.5,1.1,0.8,1.8,0.8c0.6,0,1.2-0.2,1.6-0.6l11.8-10.8C47.6,166.1,48.8,166.4,50.1,166.4z
	 M50.1,156.3c1.5,0,2.7,1.2,2.7,2.7s-1.2,2.7-2.7,2.7s-2.7-1.2-2.7-2.7C47.4,157.5,48.6,156.3,50.1,156.3z M50.1,133v4.8
	c11.6,0,21,9.5,21,21.1S61.7,180,50,180c-3.5,0-6.9-0.9-9.8-2.4l-3.7,3.4c3.9,2.4,8.5,3.8,13.5,3.8c14.3,0,25.9-11.6,25.9-25.9
	C75.9,144.6,64.4,133.1,50.1,133z"/>
<path class="st4" d="M152.5,123.5v-7.9h-4.8v7.9c-18.5,1.2-33.2,16.6-33.2,35.5c0,19.6,15.9,35.6,35.6,35.6
	c19.6,0,35.6-15.9,35.6-35.6C185.6,140.1,171,124.7,152.5,123.5z M150,189.7c-16.9,0-30.7-13.8-30.7-30.7s13.8-30.7,30.7-30.7
	s30.7,13.8,30.7,30.7S166.9,189.7,150,189.7z M181.1,132.6l3.8-3.1c-2.9-3.4-6.2-6.3-9.9-8.7l-2.6,4.1
	C175.7,127,178.6,129.6,181.1,132.6z M141.6,113.4c0-1.7,1.4-3.1,3.1-3.1h10.7c1.7,0,3.1,1.4,3.1,3.1v5.4h4.8v-5.4
	c0-4.4-3.6-7.9-7.9-7.9h-10.7c-4.4,0-7.9,3.6-7.9,7.9v5.4h4.8L141.6,113.4L141.6,113.4z M150,166.4c4.1,0,7.5-3.4,7.5-7.5
	s-3.4-7.5-7.5-7.5s-7.5,3.4-7.5,7.5c0,1.1,0.2,2.1,0.6,3l-11.8,10.8c-1,0.9-1.1,2.4-0.2,3.4c0.5,0.5,1.1,0.8,1.8,0.8
	c0.6,0,1.2-0.2,1.6-0.6l11.8-10.8C147.5,166.1,148.7,166.4,150,166.4z M150,156.3c1.5,0,2.7,1.2,2.7,2.7s-1.2,2.7-2.7,2.7
	s-2.7-1.2-2.7-2.7S148.5,156.3,150,156.3z M150,133v4.8c11.6,0,21,9.5,21,21.1s-9.4,21.1-21.1,21.1c-3.5,0-6.9-0.9-9.8-2.4l-3.7,3.4
	c3.9,2.4,8.5,3.8,13.5,3.8c14.3,0,25.9-11.6,25.9-25.9C175.9,144.6,164.3,133.1,150,133z"/>
<path class="st5" d="M252.4,123.5v-7.9h-4.8v7.9c-18.5,1.2-33.2,16.6-33.2,35.5c0,19.6,15.9,35.6,35.6,35.6
	c19.6,0,35.6-15.9,35.6-35.6C285.5,140.1,270.9,124.7,252.4,123.5z M250,189.7c-16.9,0-30.7-13.8-30.7-30.7s13.8-30.7,30.7-30.7
	s30.7,13.8,30.7,30.7S266.9,189.7,250,189.7z M281.1,132.6l3.8-3.1c-2.9-3.4-6.2-6.3-9.9-8.7l-2.6,4.1
	C275.6,127,278.6,129.6,281.1,132.6z M241.5,113.4c0-1.7,1.4-3.1,3.1-3.1h10.7c1.7,0,3.1,1.4,3.1,3.1v5.4h4.8v-5.4
	c0-4.4-3.6-7.9-7.9-7.9h-10.7c-4.4,0-7.9,3.6-7.9,7.9v5.4h4.8V113.4z M250,166.4c4.1,0,7.5-3.4,7.5-7.5s-3.4-7.5-7.5-7.5
	s-7.5,3.4-7.5,7.5c0,1.1,0.2,2.1,0.6,3l-11.8,10.8c-1,0.9-1.1,2.4-0.2,3.4c0.5,0.5,1.1,0.8,1.8,0.8c0.6,0,1.2-0.2,1.6-0.6l11.8-10.8
	C247.5,166.1,248.7,166.4,250,166.4z M250,156.3c1.5,0,2.7,1.2,2.7,2.7s-1.2,2.7-2.7,2.7s-2.7-1.2-2.7-2.7S248.5,156.3,250,156.3z
	 M250,133v4.8c11.6,0,21,9.5,21,21.1s-9.4,21.1-21.1,21.1c-3.5,0-6.9-0.9-9.8-2.4l-3.7,3.4c3.9,2.4,8.5,3.8,13.5,3.8
	c14.3,0,25.9-11.6,25.9-25.9C275.8,144.6,264.3,133.1,250,133z"/>
<path class="st6" d="M52.5,223.5v-7.9h-4.8v7.9c-18.5,1.2-33.2,16.6-33.2,35.5c0,19.6,15.9,35.6,35.6,35.6
	c19.6,0,35.6-15.9,35.6-35.6C85.6,240.1,71,224.7,52.5,223.5z M50.1,289.7c-16.9,0-30.7-13.8-30.7-30.7c0-16.9,13.8-30.7,30.7-30.7
	s30.7,13.8,30.7,30.7S67,289.7,50.1,289.7z M81.2,232.6l3.8-3.1c-2.9-3.4-6.2-6.3-9.9-8.7l-2.6,4.1C75.7,227,78.7,229.6,81.2,232.6z
	 M41.6,213.4c0-1.7,1.4-3.1,3.1-3.1h10.7c1.7,0,3.1,1.4,3.1,3.1v5.4h4.8v-5.4c0-4.4-3.6-7.9-7.9-7.9H44.8c-4.4,0-7.9,3.6-7.9,7.9
	v5.4h4.8L41.6,213.4L41.6,213.4z M50.1,266.4c4.1,0,7.5-3.4,7.5-7.5s-3.4-7.5-7.5-7.5s-7.5,3.4-7.5,7.5c0,1.1,0.2,2.1,0.6,3
	l-11.8,10.8c-1,0.9-1.1,2.4-0.2,3.4c0.5,0.5,1.1,0.8,1.8,0.8c0.6,0,1.2-0.2,1.6-0.6l11.8-10.8C47.6,266.1,48.8,266.4,50.1,266.4z
	 M50.1,256.3c1.5,0,2.7,1.2,2.7,2.7s-1.2,2.7-2.7,2.7s-2.7-1.2-2.7-2.7C47.4,257.5,48.6,256.3,50.1,256.3z M50.1,233v4.8
	c11.6,0,21,9.5,21,21.1c0,11.6-9.4,21.1-21.1,21.1c-3.5,0-6.9-0.9-9.8-2.4l-3.7,3.4c3.9,2.4,8.5,3.8,13.5,3.8
	c14.3,0,25.9-11.6,25.9-25.9S64.4,233.1,50.1,233z"/>
<path class="st7" d="M152.5,223.5v-7.9h-4.8v7.9c-18.5,1.2-33.2,16.6-33.2,35.5c0,19.6,15.9,35.6,35.6,35.6
	c19.6,0,35.6-15.9,35.6-35.6C185.6,240.1,171,224.7,152.5,223.5z M150,289.7c-16.9,0-30.7-13.8-30.7-30.7
	c0-16.9,13.8-30.7,30.7-30.7s30.7,13.8,30.7,30.7S166.9,289.7,150,289.7z M181.1,232.6l3.8-3.1c-2.9-3.4-6.2-6.3-9.9-8.7l-2.6,4.1
	C175.7,227,178.6,229.6,181.1,232.6z M141.6,213.4c0-1.7,1.4-3.1,3.1-3.1h10.7c1.7,0,3.1,1.4,3.1,3.1v5.4h4.8v-5.4
	c0-4.4-3.6-7.9-7.9-7.9h-10.7c-4.4,0-7.9,3.6-7.9,7.9v5.4h4.8L141.6,213.4L141.6,213.4z M150,266.4c4.1,0,7.5-3.4,7.5-7.5
	s-3.4-7.5-7.5-7.5s-7.5,3.4-7.5,7.5c0,1.1,0.2,2.1,0.6,3l-11.8,10.8c-1,0.9-1.1,2.4-0.2,3.4c0.5,0.5,1.1,0.8,1.8,0.8
	c0.6,0,1.2-0.2,1.6-0.6l11.8-10.8C147.5,266.1,148.7,266.4,150,266.4z M150,256.3c1.5,0,2.7,1.2,2.7,2.7s-1.2,2.7-2.7,2.7
	s-2.7-1.2-2.7-2.7S148.5,256.3,150,256.3z M150,233v4.8c11.6,0,21,9.5,21,21.1c0,11.6-9.4,21.1-21.1,21.1c-3.5,0-6.9-0.9-9.8-2.4
	l-3.7,3.4c3.9,2.4,8.5,3.8,13.5,3.8c14.3,0,25.9-11.6,25.9-25.9C175.9,244.6,164.3,233.1,150,233z"/>
<path d="M252.4,223.5v-7.9h-4.8v7.9c-18.5,1.2-33.2,16.6-33.2,35.5c0,19.6,15.9,35.6,35.6,35.6c19.6,0,35.6-15.9,35.6-35.6
	C285.5,240.1,270.9,224.7,252.4,223.5z M250,289.7c-16.9,0-30.7-13.8-30.7-30.7c0-16.9,13.8-30.7,30.7-30.7s30.7,13.8,30.7,30.7
	S266.9,289.7,250,289.7z M281.1,232.6l3.8-3.1c-2.9-3.4-6.2-6.3-9.9-8.7l-2.6,4.1C275.6,227,278.6,229.6,281.1,232.6z M241.5,213.4
	c0-1.7,1.4-3.1,3.1-3.1h10.7c1.7,0,3.1,1.4,3.1,3.1v5.4h4.8v-5.4c0-4.4-3.6-7.9-7.9-7.9h-10.7c-4.4,0-7.9,3.6-7.9,7.9v5.4h4.8V213.4
	z M250,266.4c4.1,0,7.5-3.4,7.5-7.5s-3.4-7.5-7.5-7.5s-7.5,3.4-7.5,7.5c0,1.1,0.2,2.1,0.6,3l-11.8,10.8c-1,0.9-1.1,2.4-0.2,3.4
	c0.5,0.5,1.1,0.8,1.8,0.8c0.6,0,1.2-0.2,1.6-0.6l11.8-10.8C247.5,266.1,248.7,266.4,250,266.4z M250,256.3c1.5,0,2.7,1.2,2.7,2.7
	s-1.2,2.7-2.7,2.7s-2.7-1.2-2.7-2.7S248.5,256.3,250,256.3z M250,233v4.8c11.6,0,21,9.5,21,21.1c0,11.6-9.4,21.1-21.1,21.1
	c-3.5,0-6.9-0.9-9.8-2.4l-3.7,3.4c3.9,2.4,8.5,3.8,13.5,3.8c14.3,0,25.9-11.6,25.9-25.9S264.3,233.1,250,233z"/>
</svg>
