<?xml version="1.0" encoding="utf-8"?>
<!-- Generator: Adobe Illustrator 22.0.1, SVG Export Plug-In . SVG Version: 6.00 Build 0)  -->
<svg version="1.1" id="Capa_1" xmlns="http://www.w3.org/2000/svg" xmlns:xlink="http://www.w3.org/1999/xlink" x="0px" y="0px"
	 viewBox="0 0 300 300" style="enable-background:new 0 0 300 300;" xml:space="preserve">
<style type="text/css">
	.st0{fill:#D6C424;}
	.st1{fill:#203C79;}
	.st2{fill:#EC1C2A;}
	.st3{fill:#02AFBF;}
	.st4{fill:#FFFFFF;}
	.st5{fill:#CECECE;}
	.st6{fill:#2D006D;}
	.st7{fill:#5713BA;}
</style>
<path class="st0" d="M8.3,73.8h17.9v17.9h11.9V61.9H8.3V73.8z M26.2,26.2H8.3v11.9h29.8V8.3H26.2V26.2z M62,91.7h11.9V73.8h17.9
	V61.9H62V91.7z M73.9,26.2V8.3H62v29.8h29.8V26.2H73.9z"/>
<path class="st1" d="M108.3,73.8h17.9v17.9h11.9V61.9h-29.8V73.8z M126.2,26.2h-17.9v11.9h29.8V8.3h-11.9V26.2z M161.9,91.7h11.9
	V73.8h17.9V61.9h-29.8V91.7z M173.8,26.2V8.3h-11.9v29.8h29.8V26.2H173.8z"/>
<path class="st2" d="M208.2,73.8h17.9v17.9H238V61.9h-29.8V73.8z M226.1,26.2h-17.9v11.9H238V8.3h-11.9V26.2z M261.9,91.7h11.9V73.8
	h17.9V61.9h-29.8V91.7z M273.8,26.2V8.3h-11.9v29.8h29.8V26.2H273.8z"/>
<path class="st3" d="M8.3,173.8h17.9v17.9h11.9v-29.8H8.3V173.8z M26.2,126.2H8.3v11.9h29.8v-29.8H26.2V126.2z M62,191.7h11.9v-17.9
	h17.9v-11.9H62V191.7z M73.9,126.2v-17.9H62v29.8h29.8v-11.9H73.9z"/>
<path class="st4" d="M108.3,173.8h17.9v17.9h11.9v-29.8h-29.8V173.8z M126.2,126.2h-17.9v11.9h29.8v-29.8h-11.9V126.2z M161.9,191.7
	h11.9v-17.9h17.9v-11.9h-29.8V191.7z M173.8,126.2v-17.9h-11.9v29.8h29.8v-11.9H173.8z"/>
<path class="st5" d="M208.2,173.8h17.9v17.9H238v-29.8h-29.8V173.8z M226.1,126.2h-17.9v11.9H238v-29.8h-11.9V126.2z M261.9,191.7
	h11.9v-17.9h17.9v-11.9h-29.8V191.7z M273.8,126.2v-17.9h-11.9v29.8h29.8v-11.9H273.8z"/>
<path class="st6" d="M8.3,273.8h17.9v17.9h11.9v-29.8H8.3V273.8z M26.2,226.2H8.3v11.9h29.8v-29.8H26.2V226.2z M62,291.7h11.9v-17.9
	h17.9v-11.9H62V291.7z M73.9,226.2v-17.9H62v29.8h29.8v-11.9H73.9z"/>
<path class="st7" d="M108.3,273.8h17.9v17.9h11.9v-29.8h-29.8V273.8z M126.2,226.2h-17.9v11.9h29.8v-29.8h-11.9V226.2z M161.9,291.7
	h11.9v-17.9h17.9v-11.9h-29.8V291.7z M173.8,226.2v-17.9h-11.9v29.8h29.8v-11.9H173.8z"/>
<path d="M208.2,273.8h17.9v17.9H238v-29.8h-29.8V273.8z M226.1,226.2h-17.9v11.9H238v-29.8h-11.9V226.2z M261.9,291.7h11.9v-17.9
	h17.9v-11.9h-29.8V291.7z M273.8,226.2v-17.9h-11.9v29.8h29.8v-11.9H273.8z"/>
</svg>
