<?xml version="1.0" encoding="utf-8"?>
<!-- Generator: Adobe Illustrator 22.0.1, SVG Export Plug-In . SVG Version: 6.00 Build 0)  -->
<svg version="1.1" id="Capa_1" xmlns="http://www.w3.org/2000/svg" xmlns:xlink="http://www.w3.org/1999/xlink" x="0px" y="0px"
	 viewBox="0 0 300 300" style="enable-background:new 0 0 300 300;" xml:space="preserve">
<style type="text/css">
	.st0{fill:#D6C424;}
	.st1{fill:#203C79;}
	.st2{fill:#EC1C2A;}
	.st3{fill:#02AFBF;}
	.st4{fill:#FFFFFF;}
	.st5{fill:#CECECE;}
	.st6{fill:#2D006D;}
	.st7{fill:#5713BA;}
</style>
<path class="st0" d="M50,78.4c-4.5,0-8.1,3.7-8.1,8.1s3.7,8.1,8.1,8.1s8.1-3.7,8.1-8.1S54.5,78.4,50,78.4z M25.7,5.3
	c-4.5,0-8.1,3.7-8.1,8.1s3.7,8.1,8.1,8.1s8.1-3.7,8.1-8.1S30.1,5.3,25.7,5.3z M25.7,29.7c-4.5,0-8.1,3.7-8.1,8.1s3.7,8.1,8.1,8.1
	s8.1-3.7,8.1-8.1S30.1,29.7,25.7,29.7z M25.7,54.1c-4.5,0-8.1,3.7-8.1,8.1s3.7,8.1,8.1,8.1s8.1-3.7,8.1-8.1S30.1,54.1,25.7,54.1z
	 M74.4,21.6c4.5,0,8.1-3.7,8.1-8.1s-3.7-8.1-8.1-8.1s-8.1,3.7-8.1,8.1S70,21.6,74.4,21.6z M50,54.1c-4.5,0-8.1,3.7-8.1,8.1
	s3.7,8.1,8.1,8.1s8.1-3.7,8.1-8.1S54.5,54.1,50,54.1z M74.4,54.1c-4.5,0-8.1,3.7-8.1,8.1s3.7,8.1,8.1,8.1s8.1-3.7,8.1-8.1
	S78.9,54.1,74.4,54.1z M74.4,29.7c-4.5,0-8.1,3.7-8.1,8.1s3.7,8.1,8.1,8.1s8.1-3.7,8.1-8.1S78.9,29.7,74.4,29.7z M50,29.7
	c-4.5,0-8.1,3.7-8.1,8.1s3.7,8.1,8.1,8.1s8.1-3.7,8.1-8.1S54.5,29.7,50,29.7z M50,5.3c-4.5,0-8.1,3.7-8.1,8.1s3.7,8.1,8.1,8.1
	s8.1-3.7,8.1-8.1S54.5,5.3,50,5.3z"/>
<path class="st1" d="M150,78.4c-4.5,0-8.1,3.7-8.1,8.1s3.7,8.1,8.1,8.1s8.1-3.7,8.1-8.1S154.5,78.4,150,78.4z M125.6,5.3
	c-4.5,0-8.1,3.7-8.1,8.1s3.7,8.1,8.1,8.1s8.1-3.7,8.1-8.1S130.1,5.3,125.6,5.3z M125.6,29.7c-4.5,0-8.1,3.7-8.1,8.1s3.7,8.1,8.1,8.1
	s8.1-3.7,8.1-8.1S130.1,29.7,125.6,29.7z M125.6,54.1c-4.5,0-8.1,3.7-8.1,8.1s3.7,8.1,8.1,8.1s8.1-3.7,8.1-8.1
	S130.1,54.1,125.6,54.1z M174.4,21.6c4.5,0,8.1-3.7,8.1-8.1s-3.7-8.1-8.1-8.1s-8.1,3.7-8.1,8.1S169.9,21.6,174.4,21.6z M150,54.1
	c-4.5,0-8.1,3.7-8.1,8.1s3.7,8.1,8.1,8.1s8.1-3.7,8.1-8.1S154.5,54.1,150,54.1z M174.4,54.1c-4.5,0-8.1,3.7-8.1,8.1s3.7,8.1,8.1,8.1
	s8.1-3.7,8.1-8.1S178.8,54.1,174.4,54.1z M174.4,29.7c-4.5,0-8.1,3.7-8.1,8.1s3.7,8.1,8.1,8.1s8.1-3.7,8.1-8.1
	S178.8,29.7,174.4,29.7z M150,29.7c-4.5,0-8.1,3.7-8.1,8.1s3.7,8.1,8.1,8.1s8.1-3.7,8.1-8.1S154.5,29.7,150,29.7z M150,5.3
	c-4.5,0-8.1,3.7-8.1,8.1s3.7,8.1,8.1,8.1s8.1-3.7,8.1-8.1S154.5,5.3,150,5.3z"/>
<path class="st2" d="M250,78.4c-4.5,0-8.1,3.7-8.1,8.1s3.7,8.1,8.1,8.1s8.1-3.7,8.1-8.1S254.4,78.4,250,78.4z M225.6,5.3
	c-4.5,0-8.1,3.7-8.1,8.1s3.7,8.1,8.1,8.1s8.1-3.7,8.1-8.1S230,5.3,225.6,5.3z M225.6,29.7c-4.5,0-8.1,3.7-8.1,8.1s3.7,8.1,8.1,8.1
	s8.1-3.7,8.1-8.1S230,29.7,225.6,29.7z M225.6,54.1c-4.5,0-8.1,3.7-8.1,8.1s3.7,8.1,8.1,8.1s8.1-3.7,8.1-8.1S230,54.1,225.6,54.1z
	 M274.3,21.6c4.5,0,8.1-3.7,8.1-8.1s-3.7-8.1-8.1-8.1s-8.1,3.7-8.1,8.1S269.9,21.6,274.3,21.6z M250,54.1c-4.5,0-8.1,3.7-8.1,8.1
	s3.7,8.1,8.1,8.1s8.1-3.7,8.1-8.1S254.4,54.1,250,54.1z M274.3,54.1c-4.5,0-8.1,3.7-8.1,8.1s3.7,8.1,8.1,8.1s8.1-3.7,8.1-8.1
	S278.8,54.1,274.3,54.1z M274.3,29.7c-4.5,0-8.1,3.7-8.1,8.1s3.7,8.1,8.1,8.1s8.1-3.7,8.1-8.1S278.8,29.7,274.3,29.7z M250,29.7
	c-4.5,0-8.1,3.7-8.1,8.1s3.7,8.1,8.1,8.1s8.1-3.7,8.1-8.1S254.4,29.7,250,29.7z M250,5.3c-4.5,0-8.1,3.7-8.1,8.1s3.7,8.1,8.1,8.1
	s8.1-3.7,8.1-8.1S254.4,5.3,250,5.3z"/>
<path class="st3" d="M50,178.4c-4.5,0-8.1,3.7-8.1,8.1s3.7,8.1,8.1,8.1s8.1-3.7,8.1-8.1S54.5,178.4,50,178.4z M25.7,105.3
	c-4.5,0-8.1,3.7-8.1,8.1s3.7,8.1,8.1,8.1s8.1-3.7,8.1-8.1S30.1,105.3,25.7,105.3z M25.7,129.7c-4.5,0-8.1,3.7-8.1,8.1
	s3.7,8.1,8.1,8.1s8.1-3.7,8.1-8.1S30.1,129.7,25.7,129.7z M25.7,154.1c-4.5,0-8.1,3.7-8.1,8.1s3.7,8.1,8.1,8.1s8.1-3.7,8.1-8.1
	S30.1,154.1,25.7,154.1z M74.4,121.6c4.5,0,8.1-3.7,8.1-8.1s-3.7-8.1-8.1-8.1s-8.1,3.7-8.1,8.1S70,121.6,74.4,121.6z M50,154.1
	c-4.5,0-8.1,3.7-8.1,8.1s3.7,8.1,8.1,8.1s8.1-3.7,8.1-8.1S54.5,154.1,50,154.1z M74.4,154.1c-4.5,0-8.1,3.7-8.1,8.1s3.7,8.1,8.1,8.1
	s8.1-3.7,8.1-8.1S78.9,154.1,74.4,154.1z M74.4,129.7c-4.5,0-8.1,3.7-8.1,8.1s3.7,8.1,8.1,8.1s8.1-3.7,8.1-8.1
	S78.9,129.7,74.4,129.7z M50,129.7c-4.5,0-8.1,3.7-8.1,8.1s3.7,8.1,8.1,8.1s8.1-3.7,8.1-8.1S54.5,129.7,50,129.7z M50,105.3
	c-4.5,0-8.1,3.7-8.1,8.1s3.7,8.1,8.1,8.1s8.1-3.7,8.1-8.1S54.5,105.3,50,105.3z"/>
<path class="st4" d="M150,178.4c-4.5,0-8.1,3.7-8.1,8.1s3.7,8.1,8.1,8.1s8.1-3.7,8.1-8.1S154.5,178.4,150,178.4z M125.6,105.3
	c-4.5,0-8.1,3.7-8.1,8.1s3.7,8.1,8.1,8.1s8.1-3.7,8.1-8.1S130.1,105.3,125.6,105.3z M125.6,129.7c-4.5,0-8.1,3.7-8.1,8.1
	s3.7,8.1,8.1,8.1s8.1-3.7,8.1-8.1S130.1,129.7,125.6,129.7z M125.6,154.1c-4.5,0-8.1,3.7-8.1,8.1s3.7,8.1,8.1,8.1s8.1-3.7,8.1-8.1
	S130.1,154.1,125.6,154.1z M174.4,121.6c4.5,0,8.1-3.7,8.1-8.1s-3.7-8.1-8.1-8.1s-8.1,3.7-8.1,8.1S169.9,121.6,174.4,121.6z
	 M150,154.1c-4.5,0-8.1,3.7-8.1,8.1s3.7,8.1,8.1,8.1s8.1-3.7,8.1-8.1S154.5,154.1,150,154.1z M174.4,154.1c-4.5,0-8.1,3.7-8.1,8.1
	s3.7,8.1,8.1,8.1s8.1-3.7,8.1-8.1S178.8,154.1,174.4,154.1z M174.4,129.7c-4.5,0-8.1,3.7-8.1,8.1s3.7,8.1,8.1,8.1s8.1-3.7,8.1-8.1
	S178.8,129.7,174.4,129.7z M150,129.7c-4.5,0-8.1,3.7-8.1,8.1s3.7,8.1,8.1,8.1s8.1-3.7,8.1-8.1S154.5,129.7,150,129.7z M150,105.3
	c-4.5,0-8.1,3.7-8.1,8.1s3.7,8.1,8.1,8.1s8.1-3.7,8.1-8.1S154.5,105.3,150,105.3z"/>
<path class="st5" d="M250,178.4c-4.5,0-8.1,3.7-8.1,8.1s3.7,8.1,8.1,8.1s8.1-3.7,8.1-8.1S254.4,178.4,250,178.4z M225.6,105.3
	c-4.5,0-8.1,3.7-8.1,8.1s3.7,8.1,8.1,8.1s8.1-3.7,8.1-8.1S230,105.3,225.6,105.3z M225.6,129.7c-4.5,0-8.1,3.7-8.1,8.1
	s3.7,8.1,8.1,8.1s8.1-3.7,8.1-8.1S230,129.7,225.6,129.7z M225.6,154.1c-4.5,0-8.1,3.7-8.1,8.1s3.7,8.1,8.1,8.1s8.1-3.7,8.1-8.1
	S230,154.1,225.6,154.1z M274.3,121.6c4.5,0,8.1-3.7,8.1-8.1s-3.7-8.1-8.1-8.1s-8.1,3.7-8.1,8.1S269.9,121.6,274.3,121.6z
	 M250,154.1c-4.5,0-8.1,3.7-8.1,8.1s3.7,8.1,8.1,8.1s8.1-3.7,8.1-8.1S254.4,154.1,250,154.1z M274.3,154.1c-4.5,0-8.1,3.7-8.1,8.1
	s3.7,8.1,8.1,8.1s8.1-3.7,8.1-8.1S278.8,154.1,274.3,154.1z M274.3,129.7c-4.5,0-8.1,3.7-8.1,8.1s3.7,8.1,8.1,8.1s8.1-3.7,8.1-8.1
	S278.8,129.7,274.3,129.7z M250,129.7c-4.5,0-8.1,3.7-8.1,8.1s3.7,8.1,8.1,8.1s8.1-3.7,8.1-8.1S254.4,129.7,250,129.7z M250,105.3
	c-4.5,0-8.1,3.7-8.1,8.1s3.7,8.1,8.1,8.1s8.1-3.7,8.1-8.1S254.4,105.3,250,105.3z"/>
<path class="st6" d="M50,278.4c-4.5,0-8.1,3.7-8.1,8.1s3.7,8.1,8.1,8.1s8.1-3.7,8.1-8.1S54.5,278.4,50,278.4z M25.7,205.3
	c-4.5,0-8.1,3.7-8.1,8.1s3.7,8.1,8.1,8.1s8.1-3.7,8.1-8.1S30.1,205.3,25.7,205.3z M25.7,229.7c-4.5,0-8.1,3.7-8.1,8.1
	s3.7,8.1,8.1,8.1s8.1-3.7,8.1-8.1S30.1,229.7,25.7,229.7z M25.7,254.1c-4.5,0-8.1,3.7-8.1,8.1s3.7,8.1,8.1,8.1s8.1-3.7,8.1-8.1
	S30.1,254.1,25.7,254.1z M74.4,221.6c4.5,0,8.1-3.7,8.1-8.1s-3.7-8.1-8.1-8.1s-8.1,3.7-8.1,8.1S70,221.6,74.4,221.6z M50,254.1
	c-4.5,0-8.1,3.7-8.1,8.1s3.7,8.1,8.1,8.1s8.1-3.7,8.1-8.1S54.5,254.1,50,254.1z M74.4,254.1c-4.5,0-8.1,3.7-8.1,8.1s3.7,8.1,8.1,8.1
	s8.1-3.7,8.1-8.1S78.9,254.1,74.4,254.1z M74.4,229.7c-4.5,0-8.1,3.7-8.1,8.1s3.7,8.1,8.1,8.1s8.1-3.7,8.1-8.1
	S78.9,229.7,74.4,229.7z M50,229.7c-4.5,0-8.1,3.7-8.1,8.1s3.7,8.1,8.1,8.1s8.1-3.7,8.1-8.1S54.5,229.7,50,229.7z M50,205.3
	c-4.5,0-8.1,3.7-8.1,8.1s3.7,8.1,8.1,8.1s8.1-3.7,8.1-8.1S54.5,205.3,50,205.3z"/>
<path class="st7" d="M150,278.4c-4.5,0-8.1,3.7-8.1,8.1s3.7,8.1,8.1,8.1s8.1-3.7,8.1-8.1S154.5,278.4,150,278.4z M125.6,205.3
	c-4.5,0-8.1,3.7-8.1,8.1s3.7,8.1,8.1,8.1s8.1-3.7,8.1-8.1S130.1,205.3,125.6,205.3z M125.6,229.7c-4.5,0-8.1,3.7-8.1,8.1
	s3.7,8.1,8.1,8.1s8.1-3.7,8.1-8.1S130.1,229.7,125.6,229.7z M125.6,254.1c-4.5,0-8.1,3.7-8.1,8.1s3.7,8.1,8.1,8.1s8.1-3.7,8.1-8.1
	S130.1,254.1,125.6,254.1z M174.4,221.6c4.5,0,8.1-3.7,8.1-8.1s-3.7-8.1-8.1-8.1s-8.1,3.7-8.1,8.1S169.9,221.6,174.4,221.6z
	 M150,254.1c-4.5,0-8.1,3.7-8.1,8.1s3.7,8.1,8.1,8.1s8.1-3.7,8.1-8.1S154.5,254.1,150,254.1z M174.4,254.1c-4.5,0-8.1,3.7-8.1,8.1
	s3.7,8.1,8.1,8.1s8.1-3.7,8.1-8.1S178.8,254.1,174.4,254.1z M174.4,229.7c-4.5,0-8.1,3.7-8.1,8.1s3.7,8.1,8.1,8.1s8.1-3.7,8.1-8.1
	S178.8,229.7,174.4,229.7z M150,229.7c-4.5,0-8.1,3.7-8.1,8.1s3.7,8.1,8.1,8.1s8.1-3.7,8.1-8.1S154.5,229.7,150,229.7z M150,205.3
	c-4.5,0-8.1,3.7-8.1,8.1s3.7,8.1,8.1,8.1s8.1-3.7,8.1-8.1S154.5,205.3,150,205.3z"/>
<path d="M250,278.4c-4.5,0-8.1,3.7-8.1,8.1s3.7,8.1,8.1,8.1s8.1-3.7,8.1-8.1S254.4,278.4,250,278.4z M225.6,205.3
	c-4.5,0-8.1,3.7-8.1,8.1s3.7,8.1,8.1,8.1s8.1-3.7,8.1-8.1S230,205.3,225.6,205.3z M225.6,229.7c-4.5,0-8.1,3.7-8.1,8.1
	s3.7,8.1,8.1,8.1s8.1-3.7,8.1-8.1S230,229.7,225.6,229.7z M225.6,254.1c-4.5,0-8.1,3.7-8.1,8.1s3.7,8.1,8.1,8.1s8.1-3.7,8.1-8.1
	S230,254.1,225.6,254.1z M274.3,221.6c4.5,0,8.1-3.7,8.1-8.1s-3.7-8.1-8.1-8.1s-8.1,3.7-8.1,8.1S269.9,221.6,274.3,221.6z
	 M250,254.1c-4.5,0-8.1,3.7-8.1,8.1s3.7,8.1,8.1,8.1s8.1-3.7,8.1-8.1S254.4,254.1,250,254.1z M274.3,254.1c-4.5,0-8.1,3.7-8.1,8.1
	s3.7,8.1,8.1,8.1s8.1-3.7,8.1-8.1S278.8,254.1,274.3,254.1z M274.3,229.7c-4.5,0-8.1,3.7-8.1,8.1s3.7,8.1,8.1,8.1s8.1-3.7,8.1-8.1
	S278.8,229.7,274.3,229.7z M250,229.7c-4.5,0-8.1,3.7-8.1,8.1s3.7,8.1,8.1,8.1s8.1-3.7,8.1-8.1S254.4,229.7,250,229.7z M250,205.3
	c-4.5,0-8.1,3.7-8.1,8.1s3.7,8.1,8.1,8.1s8.1-3.7,8.1-8.1S254.4,205.3,250,205.3z"/>
</svg>
