<?xml version="1.0" encoding="utf-8"?>
<!-- Generator: Adobe Illustrator 22.0.1, SVG Export Plug-In . SVG Version: 6.00 Build 0)  -->
<svg version="1.1" id="Capa_1" xmlns="http://www.w3.org/2000/svg" xmlns:xlink="http://www.w3.org/1999/xlink" x="0px" y="0px"
	 viewBox="0 0 300 300" style="enable-background:new 0 0 300 300;" xml:space="preserve">
<style type="text/css">
	.st0{fill:#D6C424;}
	.st1{fill:#203C79;}
	.st2{fill:#EC1C2A;}
	.st3{fill:#02AFBF;}
	.st4{fill:#FFFFFF;}
	.st5{fill:#CECECE;}
	.st6{fill:#2D006D;}
	.st7{fill:#5713BA;}
</style>
<polygon class="st0" points="83.9,12.5 64.1,12.5 50.1,33.2 36,12.5 16.2,12.5 40,48 13.2,87.5 51.6,87.5 51.6,74.1 42.7,74.1 
	50.1,63.1 66.4,87.5 86.9,87.5 60.1,48 "/>
<polygon class="st1" points="183.8,12.5 164,12.5 150,33.2 136,12.5 116.2,12.5 139.9,48 113.1,87.5 151.5,87.5 151.5,74.1 
	142.7,74.1 150,63.1 166.3,87.5 186.9,87.5 160.1,48 "/>
<polygon class="st2" points="283.8,12.5 264,12.5 250,33.2 235.9,12.5 216.1,12.5 239.9,48 213.1,87.5 251.5,87.5 251.5,74.1 
	242.6,74.1 250,63.1 266.3,87.5 286.8,87.5 260,48 "/>
<polygon class="st3" points="83.9,112.5 64.1,112.5 50.1,133.2 36,112.5 16.2,112.5 40,148 13.2,187.5 51.6,187.5 51.6,174.1 
	42.7,174.1 50.1,163.1 66.4,187.5 86.9,187.5 60.1,148 "/>
<polygon class="st4" points="183.8,112.5 164,112.5 150,133.2 136,112.5 116.2,112.5 139.9,148 113.1,187.5 151.5,187.5 
	151.5,174.1 142.7,174.1 150,163.1 166.3,187.5 186.9,187.5 160.1,148 "/>
<polygon class="st5" points="283.8,112.5 264,112.5 250,133.2 235.9,112.5 216.1,112.5 239.9,148 213.1,187.5 251.5,187.5 
	251.5,174.1 242.6,174.1 250,163.1 266.3,187.5 286.8,187.5 260,148 "/>
<polygon class="st6" points="83.9,212.5 64.1,212.5 50.1,233.2 36,212.5 16.2,212.5 40,248 13.2,287.5 51.6,287.5 51.6,274.1 
	42.7,274.1 50.1,263.1 66.4,287.5 86.9,287.5 60.1,248 "/>
<polygon class="st7" points="183.8,212.5 164,212.5 150,233.2 136,212.5 116.2,212.5 139.9,248 113.1,287.5 151.5,287.5 
	151.5,274.1 142.7,274.1 150,263.1 166.3,287.5 186.9,287.5 160.1,248 "/>
<polygon points="283.8,212.5 264,212.5 250,233.2 235.9,212.5 216.1,212.5 239.9,248 213.1,287.5 251.5,287.5 251.5,274.1 
	242.6,274.1 250,263.1 266.3,287.5 286.8,287.5 260,248 "/>
</svg>
