<?xml version="1.0" encoding="utf-8"?>
<!-- Generator: Adobe Illustrator 22.1.0, SVG Export Plug-In . SVG Version: 6.00 Build 0)  -->
<svg version="1.1" id="Capa_1" xmlns="http://www.w3.org/2000/svg" xmlns:xlink="http://www.w3.org/1999/xlink" x="0px" y="0px"
	 viewBox="0 0 300 300" style="enable-background:new 0 0 300 300;" xml:space="preserve">
<style type="text/css">
	.st0{fill:#203C79;}
	.st1{fill:#D6C424;}
	.st2{fill:#EC1C2A;}
	.st3{fill:#FFFFFF;}
	.st4{fill:#02AFBF;}
	.st5{fill:#CECECE;}
	.st6{fill:#5713BA;}
	.st7{fill:#2D006D;}
</style>
<path class="st0" d="M118.3,87c0,5.8,4.8,10.6,10.6,10.6h42.3c5.8,0,10.6-4.8,10.6-10.6V23.6h-63.4V87z M187,7.7h-18.5l-5.3-5.3
	h-26.4l-5.3,5.3H113v10.6h74V7.7z"/>
<path class="st1" d="M18.3,87c0,5.8,4.8,10.6,10.6,10.6h42.3c5.8,0,10.6-4.8,10.6-10.6V23.6H18.3V87z M87,7.7H68.5l-5.3-5.3H36.8
	l-5.3,5.3H13.1v10.6h74V7.7z"/>
<path class="st2" d="M218.2,87c0,5.8,4.8,10.6,10.6,10.6h42.3c5.8,0,10.6-4.8,10.6-10.6V23.6h-63.4V87z M286.9,7.7h-18.5l-5.3-5.3
	h-26.4l-5.3,5.3H213v10.6h74V7.7z"/>
<path class="st3" d="M118.3,187c0,5.8,4.8,10.6,10.6,10.6h42.3c5.8,0,10.6-4.8,10.6-10.6v-63.4h-63.4V187z M187,107.7h-18.5
	l-5.3-5.3h-26.4l-5.3,5.3H113v10.6h74V107.7z"/>
<path class="st4" d="M18.3,187c0,5.8,4.8,10.6,10.6,10.6h42.3c5.8,0,10.6-4.8,10.6-10.6v-63.4H18.3V187z M87,107.7H68.5l-5.3-5.3
	H36.8l-5.3,5.3H13.1v10.6h74V107.7z"/>
<path class="st5" d="M218.2,187c0,5.8,4.8,10.6,10.6,10.6h42.3c5.8,0,10.6-4.8,10.6-10.6v-63.4h-63.4V187z M286.9,107.7h-18.5
	l-5.3-5.3h-26.4l-5.3,5.3H213v10.6h74V107.7z"/>
<path class="st6" d="M118.3,287c0,5.8,4.8,10.6,10.6,10.6h42.3c5.8,0,10.6-4.8,10.6-10.6v-63.4h-63.4V287z M187,207.7h-18.5
	l-5.3-5.3h-26.4l-5.3,5.3H113v10.6h74V207.7z"/>
<path class="st7" d="M18.3,287c0,5.8,4.8,10.6,10.6,10.6h42.3c5.8,0,10.6-4.8,10.6-10.6v-63.4H18.3V287z M87,207.7H68.5l-5.3-5.3
	H36.8l-5.3,5.3H13.1v10.6h74V207.7z"/>
<path d="M218.2,287c0,5.8,4.8,10.6,10.6,10.6h42.3c5.8,0,10.6-4.8,10.6-10.6v-63.4h-63.4V287z M286.9,207.7h-18.5l-5.3-5.3h-26.4
	l-5.3,5.3H213v10.6h74V207.7z"/>
</svg>
