<?xml version="1.0" encoding="utf-8"?>
<!-- Generator: Adobe Illustrator 22.1.0, SVG Export Plug-In . SVG Version: 6.00 Build 0)  -->
<svg version="1.1" id="Capa_1" xmlns="http://www.w3.org/2000/svg" xmlns:xlink="http://www.w3.org/1999/xlink" x="0px" y="0px"
	 viewBox="0 0 300 300" style="enable-background:new 0 0 300 300;" xml:space="preserve">
<style type="text/css">
	.st0{fill:#D6C424;}
	.st1{fill:#203C79;}
	.st2{fill:#EC1C2A;}
	.st3{fill:#02AFBF;}
	.st4{fill:#FFFFFF;}
	.st5{fill:#CECECE;}
	.st6{fill:#2D006D;}
	.st7{fill:#5713BA;}
</style>
<path class="st0" d="M86.8,77.4c-3.7,0-6.6-3.1-6.6-6.8V49.5c0-13.9-9.6-25.4-22.7-28.8c1.1-1.5,1.7-3.4,1.7-5.4
	c0-5.2-4.2-9.3-9.3-9.3s-9.3,4.2-9.3,9.3c0,2,0.7,3.9,1.8,5.5c-12.8,3.4-22.2,14.9-22.2,28.7v21.1c0,3.8-3.1,6.8-6.8,6.8v5h37.1
	C51.6,89,57.3,94,64.3,94c7,0,12.7-5,13.9-11.7h8.6V77.4z M45.5,15.3c0-2.4,2-4.4,4.4-4.4s4.4,2,4.4,4.4s-2,4.4-4.4,4.4
	S45.5,17.7,45.5,15.3z M64.3,89.1c-4.2,0-7.7-2.8-8.8-6.7h17.7C72,86.2,68.5,89.1,64.3,89.1z"/>
<path class="st1" d="M186.8,77.4c-3.7,0-6.6-3.1-6.6-6.8V49.5c0-13.9-9.6-25.4-22.7-28.8c1.1-1.5,1.7-3.4,1.7-5.4
	c0-5.2-4.2-9.3-9.3-9.3s-9.3,4.2-9.3,9.3c0,2,0.7,3.9,1.8,5.5C129.5,24.1,120,35.7,120,49.5v21.1c0,3.8-3.1,6.8-6.8,6.8v5h37.1
	c1.2,6.6,7,11.7,13.9,11.7c7,0,12.7-5,13.9-11.7h8.6V77.4z M145.5,15.3c0-2.4,2-4.4,4.4-4.4s4.4,2,4.4,4.4s-2,4.4-4.4,4.4
	S145.5,17.7,145.5,15.3z M164.2,89.1c-4.2,0-7.7-2.8-8.8-6.7h17.7C172,86.2,168.4,89.1,164.2,89.1z"/>
<path class="st2" d="M286.7,77.4c-3.7,0-6.6-3.1-6.6-6.8V49.5c0-13.9-9.6-25.4-22.7-28.8c1.1-1.5,1.7-3.4,1.7-5.4
	c0-5.2-4.2-9.3-9.3-9.3s-9.3,4.2-9.3,9.3c0,2,0.7,3.9,1.8,5.5C229.4,24.1,220,35.7,220,49.5v21.1c0,3.8-3.1,6.8-6.8,6.8v5h37.1
	c1.2,6.6,7,11.7,13.9,11.7c7,0,12.7-5,13.9-11.7h8.6V77.4z M245.4,15.3c0-2.4,2-4.4,4.4-4.4s4.4,2,4.4,4.4s-2,4.4-4.4,4.4
	S245.4,17.7,245.4,15.3z M264.2,89.1c-4.2,0-7.7-2.8-8.8-6.7H273C271.9,86.2,268.4,89.1,264.2,89.1z"/>
<path class="st3" d="M86.8,177.4c-3.7,0-6.6-3.1-6.6-6.8v-21.1c0-13.9-9.6-25.4-22.7-28.8c1.1-1.5,1.7-3.4,1.7-5.4
	c0-5.2-4.2-9.3-9.3-9.3s-9.3,4.2-9.3,9.3c0,2,0.7,3.9,1.8,5.5c-12.8,3.4-22.2,14.9-22.2,28.7v21.1c0,3.8-3.1,6.8-6.8,6.8v5h37.1
	c1.2,6.6,7,11.7,13.9,11.7c7,0,12.7-5,13.9-11.7h8.6V177.4z M45.5,115.3c0-2.4,2-4.4,4.4-4.4s4.4,2,4.4,4.4c0,2.4-2,4.4-4.4,4.4
	S45.5,117.7,45.5,115.3z M64.3,189.1c-4.2,0-7.7-2.8-8.8-6.7h17.7C72,186.2,68.5,189.1,64.3,189.1z"/>
<path class="st4" d="M186.8,177.4c-3.7,0-6.6-3.1-6.6-6.8v-21.1c0-13.9-9.6-25.4-22.7-28.8c1.1-1.5,1.7-3.4,1.7-5.4
	c0-5.2-4.2-9.3-9.3-9.3s-9.3,4.2-9.3,9.3c0,2,0.7,3.9,1.8,5.5c-12.8,3.4-22.2,14.9-22.2,28.7v21.1c0,3.8-3.1,6.8-6.8,6.8v5h37.1
	c1.2,6.6,7,11.7,13.9,11.7c7,0,12.7-5,13.9-11.7h8.6V177.4z M145.5,115.3c0-2.4,2-4.4,4.4-4.4s4.4,2,4.4,4.4c0,2.4-2,4.4-4.4,4.4
	S145.5,117.7,145.5,115.3z M164.2,189.1c-4.2,0-7.7-2.8-8.8-6.7h17.7C172,186.2,168.4,189.1,164.2,189.1z"/>
<path class="st5" d="M286.7,177.4c-3.7,0-6.6-3.1-6.6-6.8v-21.1c0-13.9-9.6-25.4-22.7-28.8c1.1-1.5,1.7-3.4,1.7-5.4
	c0-5.2-4.2-9.3-9.3-9.3s-9.3,4.2-9.3,9.3c0,2,0.7,3.9,1.8,5.5c-12.8,3.4-22.2,14.9-22.2,28.7v21.1c0,3.8-3.1,6.8-6.8,6.8v5h37.1
	c1.2,6.6,7,11.7,13.9,11.7c7,0,12.7-5,13.9-11.7h8.6V177.4z M245.4,115.3c0-2.4,2-4.4,4.4-4.4s4.4,2,4.4,4.4c0,2.4-2,4.4-4.4,4.4
	S245.4,117.7,245.4,115.3z M264.2,189.1c-4.2,0-7.7-2.8-8.8-6.7H273C271.9,186.2,268.4,189.1,264.2,189.1z"/>
<path class="st6" d="M86.8,277.4c-3.7,0-6.6-3.1-6.6-6.8v-21.1c0-13.9-9.6-25.4-22.7-28.8c1.1-1.5,1.7-3.4,1.7-5.4
	c0-5.2-4.2-9.3-9.3-9.3s-9.3,4.2-9.3,9.3c0,2,0.7,3.9,1.8,5.5c-12.8,3.4-22.2,14.9-22.2,28.7v21.1c0,3.8-3.1,6.8-6.8,6.8v5h37.1
	c1.2,6.6,7,11.7,13.9,11.7c7,0,12.7-5,13.9-11.7h8.6V277.4z M45.5,215.3c0-2.4,2-4.4,4.4-4.4s4.4,2,4.4,4.4c0,2.4-2,4.4-4.4,4.4
	S45.5,217.7,45.5,215.3z M64.3,289.1c-4.2,0-7.7-2.8-8.8-6.7h17.7C72,286.2,68.5,289.1,64.3,289.1z"/>
<path class="st7" d="M186.8,277.4c-3.7,0-6.6-3.1-6.6-6.8v-21.1c0-13.9-9.6-25.4-22.7-28.8c1.1-1.5,1.7-3.4,1.7-5.4
	c0-5.2-4.2-9.3-9.3-9.3s-9.3,4.2-9.3,9.3c0,2,0.7,3.9,1.8,5.5c-12.8,3.4-22.2,14.9-22.2,28.7v21.1c0,3.8-3.1,6.8-6.8,6.8v5h37.1
	c1.2,6.6,7,11.7,13.9,11.7c7,0,12.7-5,13.9-11.7h8.6V277.4z M145.5,215.3c0-2.4,2-4.4,4.4-4.4s4.4,2,4.4,4.4c0,2.4-2,4.4-4.4,4.4
	S145.5,217.7,145.5,215.3z M164.2,289.1c-4.2,0-7.7-2.8-8.8-6.7h17.7C172,286.2,168.4,289.1,164.2,289.1z"/>
<path d="M286.7,277.4c-3.7,0-6.6-3.1-6.6-6.8v-21.1c0-13.9-9.6-25.4-22.7-28.8c1.1-1.5,1.7-3.4,1.7-5.4c0-5.2-4.2-9.3-9.3-9.3
	s-9.3,4.2-9.3,9.3c0,2,0.7,3.9,1.8,5.5c-12.8,3.4-22.2,14.9-22.2,28.7v21.1c0,3.8-3.1,6.8-6.8,6.8v5h37.1c1.2,6.6,7,11.7,13.9,11.7
	c7,0,12.7-5,13.9-11.7h8.6V277.4z M245.4,215.3c0-2.4,2-4.4,4.4-4.4s4.4,2,4.4,4.4c0,2.4-2,4.4-4.4,4.4S245.4,217.7,245.4,215.3z
	 M264.2,289.1c-4.2,0-7.7-2.8-8.8-6.7H273C271.9,286.2,268.4,289.1,264.2,289.1z"/>
</svg>
