<?xml version="1.0" encoding="utf-8"?>
<!-- Generator: Adobe Illustrator 22.0.1, SVG Export Plug-In . SVG Version: 6.00 Build 0)  -->
<svg version="1.1" id="Capa_1" xmlns="http://www.w3.org/2000/svg" xmlns:xlink="http://www.w3.org/1999/xlink" x="0px" y="0px"
	 viewBox="0 0 300 300" style="enable-background:new 0 0 300 300;" xml:space="preserve">
<style type="text/css">
	.st0{fill:#D6C424;}
	.st1{fill:#203C79;}
	.st2{fill:#EC1C2A;}
	.st3{fill:#02AFBF;}
	.st4{fill:#FFFFFF;}
	.st5{fill:#CECECE;}
	.st6{fill:#2D006D;}
	.st7{fill:#5713BA;}
</style>
<path class="st0" d="M85.8,23.2H50l-8.9-8.9H14.3c-4.9,0-8.9,4-8.9,8.9l0,53.6c0,4.9,4,8.9,8.9,8.9h71.5c4.9,0,8.9-4,8.9-8.9V32.1
	C94.7,27.2,90.7,23.2,85.8,23.2z M63.5,36.6c4.9,0,8.9,4,8.9,8.9s-4,8.9-8.9,8.9s-8.9-4-8.9-8.9S58.5,36.6,63.5,36.6z M81.3,72.3
	H45.6v-4.5c0-5.9,11.9-8.9,17.9-8.9s17.9,3,17.9,8.9V72.3z"/>
<path class="st1" d="M185.8,23.2H150l-8.9-8.9h-26.8c-4.9,0-8.9,4-8.9,8.9l0,53.6c0,4.9,4,8.9,8.9,8.9h71.5c4.9,0,8.9-4,8.9-8.9
	V32.1C194.7,27.2,190.7,23.2,185.8,23.2z M163.4,36.6c4.9,0,8.9,4,8.9,8.9s-4,8.9-8.9,8.9s-8.9-4-8.9-8.9S158.5,36.6,163.4,36.6z
	 M181.3,72.3h-35.8v-4.5c0-5.9,11.9-8.9,17.9-8.9s17.9,3,17.9,8.9V72.3z"/>
<path class="st2" d="M285.7,23.2H250l-8.9-8.9h-26.8c-4.9,0-8.9,4-8.9,8.9l0,53.6c0,4.9,4,8.9,8.9,8.9h71.5c4.9,0,8.9-4,8.9-8.9
	V32.1C294.6,27.2,290.6,23.2,285.7,23.2z M263.4,36.6c4.9,0,8.9,4,8.9,8.9s-4,8.9-8.9,8.9s-8.9-4-8.9-8.9S258.4,36.6,263.4,36.6z
	 M281.2,72.3h-35.8v-4.5c0-5.9,11.9-8.9,17.9-8.9s17.9,3,17.9,8.9V72.3z"/>
<path class="st3" d="M85.8,123.2H50l-8.9-8.9H14.3c-4.9,0-8.9,4-8.9,8.9l0,53.6c0,4.9,4,8.9,8.9,8.9h71.5c4.9,0,8.9-4,8.9-8.9v-44.7
	C94.7,127.2,90.7,123.2,85.8,123.2z M63.5,136.6c4.9,0,8.9,4,8.9,8.9s-4,8.9-8.9,8.9s-8.9-4-8.9-8.9S58.5,136.6,63.5,136.6z
	 M81.3,172.3H45.6v-4.5c0-5.9,11.9-8.9,17.9-8.9s17.9,3,17.9,8.9V172.3z"/>
<path class="st4" d="M185.8,123.2H150l-8.9-8.9h-26.8c-4.9,0-8.9,4-8.9,8.9l0,53.6c0,4.9,4,8.9,8.9,8.9h71.5c4.9,0,8.9-4,8.9-8.9
	v-44.7C194.7,127.2,190.7,123.2,185.8,123.2z M163.4,136.6c4.9,0,8.9,4,8.9,8.9s-4,8.9-8.9,8.9s-8.9-4-8.9-8.9
	S158.5,136.6,163.4,136.6z M181.3,172.3h-35.8v-4.5c0-5.9,11.9-8.9,17.9-8.9s17.9,3,17.9,8.9V172.3z"/>
<path class="st5" d="M285.7,123.2H250l-8.9-8.9h-26.8c-4.9,0-8.9,4-8.9,8.9l0,53.6c0,4.9,4,8.9,8.9,8.9h71.5c4.9,0,8.9-4,8.9-8.9
	v-44.7C294.6,127.2,290.6,123.2,285.7,123.2z M263.4,136.6c4.9,0,8.9,4,8.9,8.9s-4,8.9-8.9,8.9s-8.9-4-8.9-8.9
	S258.4,136.6,263.4,136.6z M281.2,172.3h-35.8v-4.5c0-5.9,11.9-8.9,17.9-8.9s17.9,3,17.9,8.9V172.3z"/>
<path class="st6" d="M85.8,223.2H50l-8.9-8.9H14.3c-4.9,0-8.9,4-8.9,8.9l0,53.6c0,4.9,4,8.9,8.9,8.9h71.5c4.9,0,8.9-4,8.9-8.9v-44.7
	C94.7,227.2,90.7,223.2,85.8,223.2z M63.5,236.6c4.9,0,8.9,4,8.9,8.9s-4,8.9-8.9,8.9s-8.9-4-8.9-8.9S58.5,236.6,63.5,236.6z
	 M81.3,272.3H45.6v-4.5c0-5.9,11.9-8.9,17.9-8.9s17.9,3,17.9,8.9V272.3z"/>
<path class="st7" d="M185.8,223.2H150l-8.9-8.9h-26.8c-4.9,0-8.9,4-8.9,8.9l0,53.6c0,4.9,4,8.9,8.9,8.9h71.5c4.9,0,8.9-4,8.9-8.9
	v-44.7C194.7,227.2,190.7,223.2,185.8,223.2z M163.4,236.6c4.9,0,8.9,4,8.9,8.9s-4,8.9-8.9,8.9s-8.9-4-8.9-8.9
	S158.5,236.6,163.4,236.6z M181.3,272.3h-35.8v-4.5c0-5.9,11.9-8.9,17.9-8.9s17.9,3,17.9,8.9V272.3z"/>
<path d="M285.7,223.2H250l-8.9-8.9h-26.8c-4.9,0-8.9,4-8.9,8.9l0,53.6c0,4.9,4,8.9,8.9,8.9h71.5c4.9,0,8.9-4,8.9-8.9v-44.7
	C294.6,227.2,290.6,223.2,285.7,223.2z M263.4,236.6c4.9,0,8.9,4,8.9,8.9s-4,8.9-8.9,8.9s-8.9-4-8.9-8.9S258.4,236.6,263.4,236.6z
	 M281.2,272.3h-35.8v-4.5c0-5.9,11.9-8.9,17.9-8.9s17.9,3,17.9,8.9V272.3z"/>
</svg>
