<?xml version="1.0" encoding="utf-8"?>
<!-- Generator: Adobe Illustrator 22.0.1, SVG Export Plug-In . SVG Version: 6.00 Build 0)  -->
<svg version="1.1" id="Capa_1" xmlns="http://www.w3.org/2000/svg" xmlns:xlink="http://www.w3.org/1999/xlink" x="0px" y="0px"
	 viewBox="0 0 300 300" style="enable-background:new 0 0 300 300;" xml:space="preserve">
<style type="text/css">
	.st0{fill:#D6C424;}
	.st1{fill:#203C79;}
	.st2{fill:#EC1C2A;}
	.st3{fill:#02AFBF;}
	.st4{fill:#FFFFFF;}
	.st5{fill:#CECECE;}
	.st6{fill:#2D006D;}
	.st7{fill:#5713BA;}
</style>
<path class="st0" d="M56.7,9.8c-22.2,0-40.2,18-40.2,40.2H3.2l17.4,17.4l0.3,0.6l18-18H25.5c0-17.3,14-31.3,31.3-31.3S88,32.7,88,50
	S74,81.3,56.7,81.3c-8.6,0-16.4-3.5-22.1-9.2l-6.3,6.3c7.3,7.3,17.3,11.8,28.4,11.8c22.2,0,40.2-18,40.2-40.2S78.9,9.8,56.7,9.8z
	 M52.3,32.1v22.3l19.1,11.3l3.2-5.4L59,51.1v-19H52.3z"/>
<path class="st1" d="M156.7,9.8c-22.2,0-40.2,18-40.2,40.2h-13.4l17.4,17.4l0.3,0.6l18-18h-13.4c0-17.3,14-31.3,31.3-31.3
	S188,32.7,188,50s-14,31.3-31.3,31.3c-8.6,0-16.4-3.5-22.1-9.2l-6.3,6.3c7.3,7.3,17.3,11.8,28.4,11.8c22.2,0,40.2-18,40.2-40.2
	S178.9,9.8,156.7,9.8z M152.2,32.1v22.3l19.1,11.3l3.2-5.4l-15.6-9.3v-19H152.2z"/>
<path class="st2" d="M256.6,9.8c-22.2,0-40.2,18-40.2,40.2h-13.4l17.4,17.4l0.3,0.6l18-18h-13.4c0-17.3,14-31.3,31.3-31.3
	c17.3,0,31.3,14,31.3,31.3s-14,31.3-31.3,31.3c-8.6,0-16.4-3.5-22.1-9.2l-6.3,6.3c7.3,7.3,17.3,11.8,28.4,11.8
	c22.2,0,40.2-18,40.2-40.2S278.8,9.8,256.6,9.8z M252.2,32.1v22.3l19.1,11.3l3.2-5.4l-15.6-9.3v-19H252.2z"/>
<path class="st3" d="M56.7,109.8c-22.2,0-40.2,18-40.2,40.2H3.2l17.4,17.4l0.3,0.6l18-18H25.5c0-17.3,14-31.3,31.3-31.3
	S88,132.7,88,150s-14,31.3-31.3,31.3c-8.6,0-16.4-3.5-22.1-9.2l-6.3,6.3c7.3,7.3,17.3,11.8,28.4,11.8c22.2,0,40.2-18,40.2-40.2
	S78.9,109.8,56.7,109.8z M52.3,132.1v22.3l19.1,11.3l3.2-5.4L59,151.1v-19H52.3z"/>
<path class="st4" d="M156.7,109.8c-22.2,0-40.2,18-40.2,40.2h-13.4l17.4,17.4l0.3,0.6l18-18h-13.4c0-17.3,14-31.3,31.3-31.3
	s31.3,14,31.3,31.3s-14,31.3-31.3,31.3c-8.6,0-16.4-3.5-22.1-9.2l-6.3,6.3c7.3,7.3,17.3,11.8,28.4,11.8c22.2,0,40.2-18,40.2-40.2
	S178.9,109.8,156.7,109.8z M152.2,132.1v22.3l19.1,11.3l3.2-5.4l-15.6-9.3v-19H152.2z"/>
<path class="st5" d="M256.6,109.8c-22.2,0-40.2,18-40.2,40.2h-13.4l17.4,17.4l0.3,0.6l18-18h-13.4c0-17.3,14-31.3,31.3-31.3
	c17.3,0,31.3,14,31.3,31.3s-14,31.3-31.3,31.3c-8.6,0-16.4-3.5-22.1-9.2l-6.3,6.3c7.3,7.3,17.3,11.8,28.4,11.8
	c22.2,0,40.2-18,40.2-40.2S278.8,109.8,256.6,109.8z M252.2,132.1v22.3l19.1,11.3l3.2-5.4l-15.6-9.3v-19H252.2z"/>
<path class="st6" d="M56.7,209.8c-22.2,0-40.2,18-40.2,40.2H3.2l17.4,17.4l0.3,0.6l18-18H25.5c0-17.3,14-31.3,31.3-31.3
	S88,232.7,88,250s-14,31.3-31.3,31.3c-8.6,0-16.4-3.5-22.1-9.2l-6.3,6.3c7.3,7.3,17.3,11.8,28.4,11.8c22.2,0,40.2-18,40.2-40.2
	S78.9,209.8,56.7,209.8z M52.3,232.1v22.3l19.1,11.3l3.2-5.4L59,251.1v-19H52.3z"/>
<path class="st7" d="M156.7,209.8c-22.2,0-40.2,18-40.2,40.2h-13.4l17.4,17.4l0.3,0.6l18-18h-13.4c0-17.3,14-31.3,31.3-31.3
	s31.3,14,31.3,31.3s-14,31.3-31.3,31.3c-8.6,0-16.4-3.5-22.1-9.2l-6.3,6.3c7.3,7.3,17.3,11.8,28.4,11.8c22.2,0,40.2-18,40.2-40.2
	S178.9,209.8,156.7,209.8z M152.2,232.1v22.3l19.1,11.3l3.2-5.4l-15.6-9.3v-19H152.2z"/>
<path d="M256.6,209.8c-22.2,0-40.2,18-40.2,40.2h-13.4l17.4,17.4l0.3,0.6l18-18h-13.4c0-17.3,14-31.3,31.3-31.3
	c17.3,0,31.3,14,31.3,31.3s-14,31.3-31.3,31.3c-8.6,0-16.4-3.5-22.1-9.2l-6.3,6.3c7.3,7.3,17.3,11.8,28.4,11.8
	c22.2,0,40.2-18,40.2-40.2S278.8,209.8,256.6,209.8z M252.2,232.1v22.3l19.1,11.3l3.2-5.4l-15.6-9.3v-19H252.2z"/>
</svg>
