<?xml version="1.0" encoding="utf-8"?>
<!-- Generator: Adobe Illustrator 22.0.1, SVG Export Plug-In . SVG Version: 6.00 Build 0)  -->
<svg version="1.1" id="Capa_1" xmlns="http://www.w3.org/2000/svg" xmlns:xlink="http://www.w3.org/1999/xlink" x="0px" y="0px"
	 viewBox="0 0 300 300" style="enable-background:new 0 0 300 300;" xml:space="preserve">
<style type="text/css">
	.st0{fill:#D6C424;}
	.st1{fill:#203C79;}
	.st2{fill:#EC1C2A;}
	.st3{fill:#02AFBF;}
	.st4{fill:#FFFFFF;}
	.st5{fill:#CECECE;}
	.st6{fill:#2D006D;}
	.st7{fill:#5713BA;}
</style>
<path class="st0" d="M85.7,26.4L66.2,7L14,59.2v19.5h19.5L85.7,26.4z M66.2,17.1l9.3,9.3l-3.9,3.9L62.3,21L66.2,17.1z M57.2,26.1
	l9.3,9.3l-30.8,31L26.3,57L57.2,26.1z M21.2,71.4v-9.3l9.3,9.3H21.2z M14,85.8V93h72v-7.2H14z"/>
<path class="st1" d="M185.7,26.4L166.2,7L114,59.2v19.5h19.5L185.7,26.4z M166.2,17.1l9.3,9.3l-3.9,3.9l-9.3-9.3L166.2,17.1z
	 M157.2,26.1l9.3,9.3l-30.9,30.9l-9.3-9.3L157.2,26.1z M121.2,71.4v-9.3l9.3,9.3H121.2z M114,85.8V93h72v-7.2H114z"/>
<path class="st2" d="M285.6,26.4L266.1,7L214,59.2v19.5h19.5L285.6,26.4z M266.1,17.1l9.3,9.3l-3.9,3.9l-9.3-9.3L266.1,17.1z
	 M257.1,26.1l9.3,9.3l-30.9,30.9l-9.3-9.3L257.1,26.1z M221.2,71.4v-9.3l9.3,9.3H221.2z M214,85.8V93h72v-7.2H214z"/>
<path class="st3" d="M85.7,126.4L66.2,107L14,159.2v19.5h19.5L85.7,126.4z M66.2,117.1l9.3,9.3l-3.9,3.9l-9.3-9.3L66.2,117.1z
	 M57.2,126.1l9.3,9.3l-30.9,30.9l-9.3-9.3L57.2,126.1z M21.2,171.4v-9.3l9.3,9.3H21.2z M14,185.8v7.2h72v-7.2H14z"/>
<path class="st4" d="M185.7,126.4L166.2,107L114,159.2v19.5h19.5L185.7,126.4z M166.2,117.1l9.3,9.3l-3.9,3.9l-9.3-9.3L166.2,117.1z
	 M157.2,126.1l9.3,9.3l-30.9,30.9l-9.3-9.3L157.2,126.1z M121.2,171.4v-9.3l9.3,9.3H121.2z M114,185.8v7.2h72v-7.2H114z"/>
<path class="st5" d="M285.6,126.4L266.1,107L214,159.2v19.5h19.5L285.6,126.4z M266.1,117.1l9.3,9.3l-3.9,3.9l-9.3-9.3L266.1,117.1z
	 M257.1,126.1l9.3,9.3l-30.9,30.9l-9.3-9.3L257.1,126.1z M221.2,171.4v-9.3l9.3,9.3H221.2z M214,185.8v7.2h72v-7.2H214z"/>
<path class="st6" d="M85.7,226.4L66.2,207L14,259.2v19.5h19.5L85.7,226.4z M66.2,217.1l9.3,9.3l-3.9,3.9l-9.3-9.3L66.2,217.1z
	 M57.2,226.1l9.3,9.3l-30.9,30.9l-9.3-9.3L57.2,226.1z M21.2,271.4v-9.3l9.3,9.3H21.2z M14,285.8v7.2h72v-7.2H14z"/>
<path class="st7" d="M185.7,226.4L166.2,207L114,259.2v19.5h19.5L185.7,226.4z M166.2,217.1l9.3,9.3l-3.9,3.9l-9.3-9.3L166.2,217.1z
	 M157.2,226.1l9.3,9.3l-30.9,30.9l-9.3-9.3L157.2,226.1z M121.2,271.4v-9.3l9.3,9.3H121.2z M114,285.8v7.2h72v-7.2H114z"/>
<path d="M285.6,226.4L266.1,207L214,259.2v19.5h19.5L285.6,226.4z M266.1,217.1l9.3,9.3l-3.9,3.9l-9.3-9.3L266.1,217.1z
	 M257.1,226.1l9.3,9.3l-30.9,30.9l-9.3-9.3L257.1,226.1z M221.2,271.4v-9.3l9.3,9.3H221.2z M214,285.8v7.2h72v-7.2H214z"/>
</svg>
