<?xml version="1.0" encoding="utf-8"?>
<!-- Generator: Adobe Illustrator 22.0.1, SVG Export Plug-In . SVG Version: 6.00 Build 0)  -->
<svg version="1.1" id="Capa_1" xmlns="http://www.w3.org/2000/svg" xmlns:xlink="http://www.w3.org/1999/xlink" x="0px" y="0px"
	 viewBox="0 0 300 300" style="enable-background:new 0 0 300 300;" xml:space="preserve">
<style type="text/css">
	.st0{fill:#D6C424;}
	.st1{fill:#203C79;}
	.st2{fill:#EC1C2A;}
	.st3{fill:#02AFBF;}
	.st4{fill:#FFFFFF;}
	.st5{fill:#CECECE;}
	.st6{fill:#2D006D;}
	.st7{fill:#5713BA;}
</style>
<path class="st0" d="M18,5.5c-6.7,0-12.2,5.4-12.2,12.2c0,6.7,5.4,12.2,12.2,12.2c6.7,0,12.2-5.4,12.2-12.2S24.7,5.5,18,5.5z
	 M24.4,34.9H11.6c-1.7,0-3,1.3-3,3v53.6c0,1.7,1.3,3,3,3h12.8c1.7,0,3-1.3,3-3V37.9C27.4,36.2,26.1,34.9,24.4,34.9z M72.4,34
	c-9.9,0-14.6,3.6-17.7,8.3v-4.7c0-1.5-1.2-2.8-2.8-2.8H38.6c-1.5,0-2.8,1.2-2.8,2.8v54.1c0,1.5,1.2,2.8,2.8,2.8h13.3
	c1.5,0,2.8-1.2,2.8-2.8v-29c0.3-3.9,2.1-12.6,10.5-12.6c10.9,0,9.8,12.7,9.8,16.4v25.2c0,1.5,1.2,2.8,2.8,2.8h13.7
	c1.5,0,2.8-1.2,2.8-2.8v-26C94.3,54.5,94.4,34,72.4,34z"/>
<path class="st1" d="M117.9,5.5c-6.7,0-12.2,5.4-12.2,12.2c0,6.7,5.4,12.2,12.2,12.2c6.7,0,12.2-5.4,12.2-12.2S124.7,5.5,117.9,5.5z
	 M124.3,34.9h-12.8c-1.7,0-3,1.3-3,3v53.6c0,1.7,1.3,3,3,3h12.8c1.7,0,3-1.3,3-3V37.9C127.3,36.2,126,34.9,124.3,34.9z M172.3,34
	c-9.9,0-14.6,3.6-17.7,8.3v-4.7c0-1.5-1.2-2.8-2.8-2.8h-13.3c-1.5,0-2.8,1.2-2.8,2.8v54.1c0,1.5,1.2,2.8,2.8,2.8h13.3
	c1.5,0,2.8-1.2,2.8-2.8v-29c0.3-3.9,2.1-12.6,10.5-12.6c10.9,0,9.8,12.7,9.8,16.4v25.2c0,1.5,1.2,2.8,2.8,2.8h13.7
	c1.5,0,2.8-1.2,2.8-2.8v-26C194.2,54.5,194.3,34,172.3,34z"/>
<path class="st2" d="M217.9,5.5c-6.7,0-12.2,5.4-12.2,12.2c0,6.7,5.4,12.2,12.2,12.2c6.7,0,12.2-5.4,12.2-12.2
	C230.1,10.9,224.6,5.5,217.9,5.5z M224.3,34.9h-12.8c-1.7,0-3,1.3-3,3v53.6c0,1.7,1.3,3,3,3h12.8c1.7,0,3-1.3,3-3V37.9
	C227.3,36.2,226,34.9,224.3,34.9z M272.3,34c-9.9,0-14.6,3.6-17.7,8.3v-4.7c0-1.5-1.2-2.8-2.8-2.8h-13.3c-1.5,0-2.8,1.2-2.8,2.8
	v54.1c0,1.5,1.2,2.8,2.8,2.8h13.3c1.5,0,2.8-1.2,2.8-2.8v-29c0.3-3.9,2.1-12.6,10.5-12.6c10.9,0,9.8,12.7,9.8,16.4v25.2
	c0,1.5,1.2,2.8,2.8,2.8h13.7c1.5,0,2.8-1.2,2.8-2.8v-26C294.2,54.5,294.3,34,272.3,34z"/>
<path class="st3" d="M18,105.5c-6.7,0-12.2,5.4-12.2,12.2c0,6.7,5.4,12.2,12.2,12.2c6.7,0,12.2-5.4,12.2-12.2S24.7,105.5,18,105.5z
	 M24.4,134.9H11.6c-1.7,0-3,1.3-3,3v53.6c0,1.7,1.3,3,3,3h12.8c1.7,0,3-1.3,3-3v-53.6C27.4,136.2,26.1,134.9,24.4,134.9z M72.4,134
	c-9.9,0-14.6,3.6-17.7,8.3v-4.7c0-1.5-1.2-2.8-2.8-2.8H38.6c-1.5,0-2.8,1.2-2.8,2.8v54.1c0,1.5,1.2,2.8,2.8,2.8h13.3
	c1.5,0,2.8-1.2,2.8-2.8v-29c0.3-3.9,2.1-12.6,10.5-12.6c10.9,0,9.8,12.7,9.8,16.4v25.2c0,1.5,1.2,2.8,2.8,2.8h13.7
	c1.5,0,2.8-1.2,2.8-2.8v-26C94.3,154.5,94.4,134,72.4,134z"/>
<path class="st4" d="M117.9,105.5c-6.7,0-12.2,5.4-12.2,12.2c0,6.7,5.4,12.2,12.2,12.2c6.7,0,12.2-5.4,12.2-12.2
	S124.7,105.5,117.9,105.5z M124.3,134.9h-12.8c-1.7,0-3,1.3-3,3v53.6c0,1.7,1.3,3,3,3h12.8c1.7,0,3-1.3,3-3v-53.6
	C127.3,136.2,126,134.9,124.3,134.9z M172.3,134c-9.9,0-14.6,3.6-17.7,8.3v-4.7c0-1.5-1.2-2.8-2.8-2.8h-13.3c-1.5,0-2.8,1.2-2.8,2.8
	v54.1c0,1.5,1.2,2.8,2.8,2.8h13.3c1.5,0,2.8-1.2,2.8-2.8v-29c0.3-3.9,2.1-12.6,10.5-12.6c10.9,0,9.8,12.7,9.8,16.4v25.2
	c0,1.5,1.2,2.8,2.8,2.8h13.7c1.5,0,2.8-1.2,2.8-2.8v-26C194.2,154.5,194.3,134,172.3,134z"/>
<path class="st5" d="M217.9,105.5c-6.7,0-12.2,5.4-12.2,12.2c0,6.7,5.4,12.2,12.2,12.2c6.7,0,12.2-5.4,12.2-12.2
	C230.1,110.9,224.6,105.5,217.9,105.5z M224.3,134.9h-12.8c-1.7,0-3,1.3-3,3v53.6c0,1.7,1.3,3,3,3h12.8c1.7,0,3-1.3,3-3v-53.6
	C227.3,136.2,226,134.9,224.3,134.9z M272.3,134c-9.9,0-14.6,3.6-17.7,8.3v-4.7c0-1.5-1.2-2.8-2.8-2.8h-13.3c-1.5,0-2.8,1.2-2.8,2.8
	v54.1c0,1.5,1.2,2.8,2.8,2.8h13.3c1.5,0,2.8-1.2,2.8-2.8v-29c0.3-3.9,2.1-12.6,10.5-12.6c10.9,0,9.8,12.7,9.8,16.4v25.2
	c0,1.5,1.2,2.8,2.8,2.8h13.7c1.5,0,2.8-1.2,2.8-2.8v-26C294.2,154.5,294.3,134,272.3,134z"/>
<path class="st6" d="M18,205.5c-6.7,0-12.2,5.4-12.2,12.2c0,6.7,5.4,12.2,12.2,12.2c6.7,0,12.2-5.4,12.2-12.2S24.7,205.5,18,205.5z
	 M24.4,234.9H11.6c-1.7,0-3,1.3-3,3v53.6c0,1.7,1.3,3,3,3h12.8c1.7,0,3-1.3,3-3v-53.6C27.4,236.2,26.1,234.9,24.4,234.9z M72.4,234
	c-9.9,0-14.6,3.6-17.7,8.3v-4.7c0-1.5-1.2-2.8-2.8-2.8H38.6c-1.5,0-2.8,1.2-2.8,2.8v54.1c0,1.5,1.2,2.8,2.8,2.8h13.3
	c1.5,0,2.8-1.2,2.8-2.8v-29c0.3-3.9,2.1-12.6,10.5-12.6c10.9,0,9.8,12.7,9.8,16.4v25.2c0,1.5,1.2,2.8,2.8,2.8h13.7
	c1.5,0,2.8-1.2,2.8-2.8v-26C94.3,254.5,94.4,234,72.4,234z"/>
<path class="st7" d="M117.9,205.5c-6.7,0-12.2,5.4-12.2,12.2c0,6.7,5.4,12.2,12.2,12.2c6.7,0,12.2-5.4,12.2-12.2
	S124.7,205.5,117.9,205.5z M124.3,234.9h-12.8c-1.7,0-3,1.3-3,3v53.6c0,1.7,1.3,3,3,3h12.8c1.7,0,3-1.3,3-3v-53.6
	C127.3,236.2,126,234.9,124.3,234.9z M172.3,234c-9.9,0-14.6,3.6-17.7,8.3v-4.7c0-1.5-1.2-2.8-2.8-2.8h-13.3c-1.5,0-2.8,1.2-2.8,2.8
	v54.1c0,1.5,1.2,2.8,2.8,2.8h13.3c1.5,0,2.8-1.2,2.8-2.8v-29c0.3-3.9,2.1-12.6,10.5-12.6c10.9,0,9.8,12.7,9.8,16.4v25.2
	c0,1.5,1.2,2.8,2.8,2.8h13.7c1.5,0,2.8-1.2,2.8-2.8v-26C194.2,254.5,194.3,234,172.3,234z"/>
<path d="M217.9,205.5c-6.7,0-12.2,5.4-12.2,12.2c0,6.7,5.4,12.2,12.2,12.2c6.7,0,12.2-5.4,12.2-12.2
	C230.1,210.9,224.6,205.5,217.9,205.5z M224.3,234.9h-12.8c-1.7,0-3,1.3-3,3v53.6c0,1.7,1.3,3,3,3h12.8c1.7,0,3-1.3,3-3v-53.6
	C227.3,236.2,226,234.9,224.3,234.9z M272.3,234c-9.9,0-14.6,3.6-17.7,8.3v-4.7c0-1.5-1.2-2.8-2.8-2.8h-13.3c-1.5,0-2.8,1.2-2.8,2.8
	v54.1c0,1.5,1.2,2.8,2.8,2.8h13.3c1.5,0,2.8-1.2,2.8-2.8v-29c0.3-3.9,2.1-12.6,10.5-12.6c10.9,0,9.8,12.7,9.8,16.4v25.2
	c0,1.5,1.2,2.8,2.8,2.8h13.7c1.5,0,2.8-1.2,2.8-2.8v-26C294.2,254.5,294.3,234,272.3,234z"/>
</svg>
