<?xml version="1.0" encoding="utf-8"?>
<!-- Generator: Adobe Illustrator 22.1.0, SVG Export Plug-In . SVG Version: 6.00 Build 0)  -->
<svg version="1.1" id="Capa_1" xmlns="http://www.w3.org/2000/svg" xmlns:xlink="http://www.w3.org/1999/xlink" x="0px" y="0px"
	 viewBox="0 0 300 300" style="enable-background:new 0 0 300 300;" xml:space="preserve">
<style type="text/css">
	.st0{fill:#FFFFFF;}
	.st1{fill:#CECECE;}
	.st2{fill:#02AFBF;}
	.st3{fill:#5713BA;}
	.st4{fill:#2D006D;}
	.st5{fill:#203C79;}
	.st6{fill:#EC1C2A;}
	.st7{fill:#D6C424;}
</style>
<path class="st0" d="M150,128.6c4.7,0,8.5-3.8,8.5-8.5c0-1.6-0.4-3.1-1.2-4.4L150,103l-7.3,12.7c-0.8,1.3-1.2,2.8-1.2,4.4
	C141.5,124.8,145.3,128.6,150,128.6z M169.7,171.3l-4.6-4.6l-4.6,4.6c-5.6,5.6-15.3,5.6-20.9,0l-4.6-4.6l-4.7,4.6
	c-2.8,2.8-6.5,4.3-10.4,4.3c-3.1,0-6-1-8.4-2.6v19.7c0,2.3,1.9,4.3,4.3,4.3h68.4c2.3,0,4.3-1.9,4.3-4.3V173
	c-2.4,1.6-5.3,2.6-8.4,2.6C176.1,175.6,172.4,174.1,169.7,171.3z M175.6,141.5h-21.4v-8.5h-8.5v8.5h-21.4c-7.1,0-12.8,5.7-12.8,12.8
	v6.6c0,4.6,3.8,8.4,8.4,8.4c2.2,0,4.4-0.9,5.9-2.4l9.1-9.1l9.1,9.1c3.2,3.2,8.7,3.2,11.8,0l9.1-9.1l9.1,9.1c1.6,1.6,3.7,2.4,5.9,2.4
	c4.6,0,8.4-3.8,8.4-8.4v-6.6C188.5,147.2,182.7,141.5,175.6,141.5z"/>
<path class="st1" d="M249.9,128.6c4.7,0,8.5-3.8,8.5-8.5c0-1.6-0.4-3.1-1.2-4.4l-7.3-12.7l-7.3,12.7c-0.8,1.3-1.2,2.8-1.2,4.4
	C241.4,124.8,245.2,128.6,249.9,128.6z M269.6,171.3l-4.6-4.6l-4.6,4.6c-5.6,5.6-15.3,5.6-20.9,0l-4.6-4.6l-4.7,4.6
	c-2.8,2.8-6.5,4.3-10.4,4.3c-3.1,0-6-1-8.4-2.6v19.7c0,2.3,1.9,4.3,4.3,4.3h68.4c2.4,0,4.3-1.9,4.3-4.3V173
	c-2.4,1.6-5.3,2.6-8.4,2.6C276.1,175.6,272.4,174.1,269.6,171.3z M275.6,141.5h-21.4v-8.5h-8.5v8.5h-21.4c-7.1,0-12.8,5.7-12.8,12.8
	v6.6c0,4.6,3.8,8.4,8.4,8.4c2.2,0,4.4-0.9,5.9-2.4l9.1-9.1l9.1,9.1c3.2,3.2,8.7,3.2,11.8,0l9.1-9.1l9.1,9.1c1.6,1.6,3.7,2.4,5.9,2.4
	c4.6,0,8.4-3.8,8.4-8.4v-6.6C288.4,147.2,282.7,141.5,275.6,141.5z"/>
<path class="st2" d="M50.1,128.6c4.7,0,8.5-3.8,8.5-8.5c0-1.6-0.4-3.1-1.2-4.4L50.1,103l-7.3,12.7c-0.8,1.3-1.2,2.8-1.2,4.4
	C41.5,124.8,45.4,128.6,50.1,128.6z M69.7,171.3l-4.6-4.6l-4.6,4.6c-5.6,5.6-15.3,5.6-20.9,0l-4.6-4.6l-4.7,4.6
	c-2.8,2.8-6.5,4.3-10.4,4.3c-3.1,0-6-1-8.4-2.6v19.7c0,2.3,1.9,4.3,4.3,4.3h68.4c2.3,0,4.3-1.9,4.3-4.3V173
	c-2.4,1.6-5.3,2.6-8.4,2.6C76.2,175.6,72.5,174.1,69.7,171.3z M75.7,141.5H54.3v-8.5h-8.5v8.5H24.4c-7.1,0-12.8,5.7-12.8,12.8v6.6
	c0,4.6,3.8,8.4,8.4,8.4c2.2,0,4.4-0.9,5.9-2.4l9.1-9.1l9.1,9.1c3.2,3.2,8.7,3.2,11.8,0l9.1-9.1l9.1,9.1c1.6,1.6,3.7,2.4,5.9,2.4
	c4.6,0,8.4-3.8,8.4-8.4v-6.6C88.5,147.2,82.8,141.5,75.7,141.5z"/>
<path class="st3" d="M150,228.6c4.7,0,8.5-3.8,8.5-8.5c0-1.6-0.4-3.1-1.2-4.4L150,203l-7.3,12.7c-0.8,1.3-1.2,2.8-1.2,4.4
	C141.5,224.8,145.3,228.6,150,228.6z M169.7,271.3l-4.6-4.6l-4.6,4.6c-5.6,5.6-15.3,5.6-20.9,0l-4.6-4.6l-4.7,4.6
	c-2.8,2.8-6.5,4.3-10.4,4.3c-3.1,0-6-1-8.4-2.6v19.7c0,2.4,1.9,4.3,4.3,4.3h68.4c2.3,0,4.3-1.9,4.3-4.3V273
	c-2.4,1.6-5.3,2.6-8.4,2.6C176.1,275.6,172.4,274.1,169.7,271.3z M175.6,241.5h-21.4v-8.5h-8.5v8.5h-21.4c-7.1,0-12.8,5.7-12.8,12.8
	v6.6c0,4.6,3.8,8.4,8.4,8.4c2.2,0,4.4-0.9,5.9-2.4l9.1-9.1l9.1,9.1c3.2,3.2,8.7,3.2,11.8,0l9.1-9.1l9.1,9.1c1.6,1.6,3.7,2.4,5.9,2.4
	c4.6,0,8.4-3.8,8.4-8.4v-6.6C188.5,247.2,182.7,241.5,175.6,241.5z"/>
<path d="M249.9,228.6c4.7,0,8.5-3.8,8.5-8.5c0-1.6-0.4-3.1-1.2-4.4l-7.3-12.7l-7.3,12.7c-0.8,1.3-1.2,2.8-1.2,4.4
	C241.4,224.8,245.2,228.6,249.9,228.6z M269.6,271.3l-4.6-4.6l-4.6,4.6c-5.6,5.6-15.3,5.6-20.9,0l-4.6-4.6l-4.7,4.6
	c-2.8,2.8-6.5,4.3-10.4,4.3c-3.1,0-6-1-8.4-2.6v19.7c0,2.4,1.9,4.3,4.3,4.3h68.4c2.4,0,4.3-1.9,4.3-4.3V273
	c-2.4,1.6-5.3,2.6-8.4,2.6C276.1,275.6,272.4,274.1,269.6,271.3z M275.6,241.5h-21.4v-8.5h-8.5v8.5h-21.4c-7.1,0-12.8,5.7-12.8,12.8
	v6.6c0,4.6,3.8,8.4,8.4,8.4c2.2,0,4.4-0.9,5.9-2.4l9.1-9.1l9.1,9.1c3.2,3.2,8.7,3.2,11.8,0l9.1-9.1l9.1,9.1c1.6,1.6,3.7,2.4,5.9,2.4
	c4.6,0,8.4-3.8,8.4-8.4v-6.6C288.4,247.2,282.7,241.5,275.6,241.5z"/>
<path class="st4" d="M50.1,228.6c4.7,0,8.5-3.8,8.5-8.5c0-1.6-0.4-3.1-1.2-4.4L50.1,203l-7.3,12.7c-0.8,1.3-1.2,2.8-1.2,4.4
	C41.5,224.8,45.4,228.6,50.1,228.6z M69.7,271.3l-4.6-4.6l-4.6,4.6c-5.6,5.6-15.3,5.6-20.9,0l-4.6-4.6l-4.7,4.6
	c-2.8,2.8-6.5,4.3-10.4,4.3c-3.1,0-6-1-8.4-2.6v19.7c0,2.4,1.9,4.3,4.3,4.3h68.4c2.3,0,4.3-1.9,4.3-4.3V273
	c-2.4,1.6-5.3,2.6-8.4,2.6C76.2,275.6,72.5,274.1,69.7,271.3z M75.7,241.5H54.3v-8.5h-8.5v8.5H24.4c-7.1,0-12.8,5.7-12.8,12.8v6.6
	c0,4.6,3.8,8.4,8.4,8.4c2.2,0,4.4-0.9,5.9-2.4l9.1-9.1l9.1,9.1c3.2,3.2,8.7,3.2,11.8,0l9.1-9.1l9.1,9.1c1.6,1.6,3.7,2.4,5.9,2.4
	c4.6,0,8.4-3.8,8.4-8.4v-6.6C88.5,247.2,82.8,241.5,75.7,241.5z"/>
<path class="st5" d="M150,28.6c4.7,0,8.5-3.8,8.5-8.5c0-1.6-0.4-3.1-1.2-4.4L150,3l-7.3,12.7c-0.8,1.3-1.2,2.8-1.2,4.4
	C141.5,24.8,145.3,28.6,150,28.6z M169.7,71.3l-4.6-4.6l-4.6,4.6c-5.6,5.6-15.3,5.6-20.9,0l-4.6-4.6l-4.7,4.6
	c-2.8,2.8-6.5,4.3-10.4,4.3c-3.1,0-6-1-8.4-2.6v19.7c0,2.3,1.9,4.3,4.3,4.3h68.4c2.3,0,4.3-1.9,4.3-4.3V73c-2.4,1.6-5.3,2.6-8.4,2.6
	C176.1,75.6,172.4,74.1,169.7,71.3z M175.6,41.5h-21.4v-8.5h-8.5v8.5h-21.4c-7.1,0-12.8,5.7-12.8,12.8v6.6c0,4.6,3.8,8.4,8.4,8.4
	c2.2,0,4.4-0.9,5.9-2.4l9.1-9.1l9.1,9.1c3.2,3.2,8.7,3.2,11.8,0l9.1-9.1l9.1,9.1c1.6,1.6,3.7,2.4,5.9,2.4c4.6,0,8.4-3.8,8.4-8.4
	v-6.6C188.5,47.2,182.7,41.5,175.6,41.5z"/>
<path class="st6" d="M249.9,28.6c4.7,0,8.5-3.8,8.5-8.5c0-1.6-0.4-3.1-1.2-4.4L249.9,3l-7.3,12.7c-0.8,1.3-1.2,2.8-1.2,4.4
	C241.4,24.8,245.2,28.6,249.9,28.6z M269.6,71.3l-4.6-4.6l-4.6,4.6c-5.6,5.6-15.3,5.6-20.9,0l-4.6-4.6l-4.7,4.6
	c-2.8,2.8-6.5,4.3-10.4,4.3c-3.1,0-6-1-8.4-2.6v19.7c0,2.3,1.9,4.3,4.3,4.3h68.4c2.4,0,4.3-1.9,4.3-4.3V73c-2.4,1.6-5.3,2.6-8.4,2.6
	C276.1,75.6,272.4,74.1,269.6,71.3z M275.6,41.5h-21.4v-8.5h-8.5v8.5h-21.4c-7.1,0-12.8,5.7-12.8,12.8v6.6c0,4.6,3.8,8.4,8.4,8.4
	c2.2,0,4.4-0.9,5.9-2.4l9.1-9.1l9.1,9.1c3.2,3.2,8.7,3.2,11.8,0l9.1-9.1l9.1,9.1c1.6,1.6,3.7,2.4,5.9,2.4c4.6,0,8.4-3.8,8.4-8.4
	v-6.6C288.4,47.2,282.7,41.5,275.6,41.5z"/>
<path class="st7" d="M50.1,28.6c4.7,0,8.5-3.8,8.5-8.5c0-1.6-0.4-3.1-1.2-4.4L50.1,3l-7.3,12.7c-0.8,1.3-1.2,2.8-1.2,4.4
	C41.5,24.8,45.4,28.6,50.1,28.6z M69.7,71.3l-4.6-4.6l-4.6,4.6c-5.6,5.6-15.3,5.6-20.9,0l-4.6-4.6l-4.7,4.6
	c-2.8,2.8-6.5,4.3-10.4,4.3c-3.1,0-6-1-8.4-2.6v19.7c0,2.3,1.9,4.3,4.3,4.3h68.4c2.3,0,4.3-1.9,4.3-4.3V73c-2.4,1.6-5.3,2.6-8.4,2.6
	C76.2,75.6,72.5,74.1,69.7,71.3z M75.7,41.5H54.3v-8.5h-8.5v8.5H24.4c-7.1,0-12.8,5.7-12.8,12.8v6.6c0,4.6,3.8,8.4,8.4,8.4
	c2.2,0,4.4-0.9,5.9-2.4l9.1-9.1l9.1,9.1c3.2,3.2,8.7,3.2,11.8,0l9.1-9.1l9.1,9.1c1.6,1.6,3.7,2.4,5.9,2.4c4.6,0,8.4-3.8,8.4-8.4
	v-6.6C88.5,47.2,82.8,41.5,75.7,41.5z"/>
</svg>
