<?xml version="1.0" encoding="utf-8"?>
<!-- Generator: Adobe Illustrator 22.0.1, SVG Export Plug-In . SVG Version: 6.00 Build 0)  -->
<svg version="1.1" id="Capa_1" xmlns="http://www.w3.org/2000/svg" xmlns:xlink="http://www.w3.org/1999/xlink" x="0px" y="0px"
	 viewBox="0 0 300 300" style="enable-background:new 0 0 300 300;" xml:space="preserve">
<style type="text/css">
	.st0{fill:#D6C424;}
	.st1{fill:#203C79;}
	.st2{fill:#EC1C2A;}
	.st3{fill:#02AFBF;}
	.st4{fill:#FFFFFF;}
	.st5{fill:#CECECE;}
	.st6{fill:#2D006D;}
	.st7{fill:#5713BA;}
</style>
<path class="st0" d="M50,8.7C27.3,8.7,8.8,27.2,8.8,50s18.5,41.3,41.3,41.3c22.8,0,41.2-18.5,41.2-41.3S72.8,8.7,50,8.7z M55.6,76.1
	H44.3v-33h11.4V76.1z M54.8,34.7c-1.2,1.2-2.8,1.8-4.8,1.8c-1.9,0-3.5-0.6-4.7-1.8c-1.2-1.2-1.9-2.7-1.9-4.5c0-1.8,0.6-3.3,1.9-4.5
	c1.2-1.2,2.8-1.7,4.7-1.7c2,0,3.6,0.6,4.8,1.8c1.2,1.2,1.8,2.7,1.8,4.5C56.7,32,56,33.5,54.8,34.7z"/>
<path class="st1" d="M150,8.7c-22.7,0-41.2,18.5-41.2,41.3s18.5,41.3,41.3,41.3c22.8,0,41.2-18.5,41.2-41.3S172.8,8.7,150,8.7z
	 M155.6,76.1h-11.4v-33h11.4V76.1z M154.7,34.7c-1.2,1.2-2.8,1.8-4.8,1.8c-1.9,0-3.5-0.6-4.7-1.8c-1.2-1.2-1.9-2.7-1.9-4.5
	c0-1.8,0.6-3.3,1.9-4.5c1.2-1.2,2.8-1.7,4.7-1.7c2,0,3.6,0.6,4.8,1.8c1.2,1.2,1.8,2.7,1.8,4.5C156.6,32,156,33.5,154.7,34.7z"/>
<path class="st2" d="M249.9,8.7c-22.7,0-41.2,18.5-41.2,41.3s18.5,41.3,41.3,41.3c22.8,0,41.2-18.5,41.2-41.3S272.7,8.7,249.9,8.7z
	 M255.5,76.1h-11.4v-33h11.4V76.1z M254.7,34.7c-1.2,1.2-2.8,1.8-4.8,1.8c-1.9,0-3.5-0.6-4.7-1.8c-1.2-1.2-1.9-2.7-1.9-4.5
	c0-1.8,0.6-3.3,1.9-4.5c1.2-1.2,2.8-1.7,4.7-1.7c2,0,3.6,0.6,4.8,1.8c1.2,1.2,1.8,2.7,1.8,4.5C256.6,32,255.9,33.5,254.7,34.7z"/>
<path class="st3" d="M50,108.7c-22.7,0-41.2,18.5-41.2,41.3s18.5,41.3,41.3,41.3c22.8,0,41.2-18.5,41.2-41.3S72.8,108.7,50,108.7z
	 M55.6,176.1H44.3v-33h11.4V176.1z M54.8,134.7c-1.2,1.2-2.8,1.8-4.8,1.8c-1.9,0-3.5-0.6-4.7-1.8c-1.2-1.2-1.9-2.7-1.9-4.5
	c0-1.8,0.6-3.3,1.9-4.5c1.2-1.2,2.8-1.7,4.7-1.7c2,0,3.6,0.6,4.8,1.8c1.2,1.2,1.8,2.7,1.8,4.5C56.7,132,56,133.5,54.8,134.7z"/>
<path class="st4" d="M150,108.7c-22.7,0-41.2,18.5-41.2,41.3s18.5,41.3,41.3,41.3c22.8,0,41.2-18.5,41.2-41.3S172.8,108.7,150,108.7
	z M155.6,176.1h-11.4v-33h11.4V176.1z M154.7,134.7c-1.2,1.2-2.8,1.8-4.8,1.8c-1.9,0-3.5-0.6-4.7-1.8c-1.2-1.2-1.9-2.7-1.9-4.5
	c0-1.8,0.6-3.3,1.9-4.5c1.2-1.2,2.8-1.7,4.7-1.7c2,0,3.6,0.6,4.8,1.8c1.2,1.2,1.8,2.7,1.8,4.5C156.6,132,156,133.5,154.7,134.7z"/>
<path class="st5" d="M249.9,108.7c-22.7,0-41.2,18.5-41.2,41.3s18.5,41.3,41.3,41.3c22.8,0,41.2-18.5,41.2-41.3
	S272.7,108.7,249.9,108.7z M255.5,176.1h-11.4v-33h11.4V176.1z M254.7,134.7c-1.2,1.2-2.8,1.8-4.8,1.8c-1.9,0-3.5-0.6-4.7-1.8
	c-1.2-1.2-1.9-2.7-1.9-4.5c0-1.8,0.6-3.3,1.9-4.5c1.2-1.2,2.8-1.7,4.7-1.7c2,0,3.6,0.6,4.8,1.8c1.2,1.2,1.8,2.7,1.8,4.5
	C256.6,132,255.9,133.5,254.7,134.7z"/>
<path class="st6" d="M50,208.6c-22.7,0-41.2,18.5-41.2,41.3s18.5,41.3,41.3,41.3c22.8,0,41.2-18.5,41.2-41.3S72.8,208.6,50,208.6z
	 M55.6,276H44.3v-33h11.4V276z M54.8,234.6c-1.2,1.2-2.8,1.8-4.8,1.8c-1.9,0-3.5-0.6-4.7-1.8c-1.2-1.2-1.9-2.7-1.9-4.5
	c0-1.8,0.6-3.3,1.9-4.5c1.2-1.2,2.8-1.7,4.7-1.7c2,0,3.6,0.6,4.8,1.8c1.2,1.2,1.8,2.7,1.8,4.5C56.7,231.9,56,233.4,54.8,234.6z"/>
<path class="st7" d="M150,208.6c-22.7,0-41.2,18.5-41.2,41.3s18.5,41.3,41.3,41.3c22.8,0,41.2-18.5,41.2-41.3S172.8,208.6,150,208.6
	z M155.6,276h-11.4v-33h11.4V276z M154.7,234.6c-1.2,1.2-2.8,1.8-4.8,1.8c-1.9,0-3.5-0.6-4.7-1.8c-1.2-1.2-1.9-2.7-1.9-4.5
	c0-1.8,0.6-3.3,1.9-4.5c1.2-1.2,2.8-1.7,4.7-1.7c2,0,3.6,0.6,4.8,1.8c1.2,1.2,1.8,2.7,1.8,4.5C156.6,231.9,156,233.4,154.7,234.6z"
	/>
<path d="M249.9,208.6c-22.7,0-41.2,18.5-41.2,41.3s18.5,41.3,41.3,41.3c22.8,0,41.2-18.5,41.2-41.3S272.7,208.6,249.9,208.6z
	 M255.5,276h-11.4v-33h11.4V276z M254.7,234.6c-1.2,1.2-2.8,1.8-4.8,1.8c-1.9,0-3.5-0.6-4.7-1.8c-1.2-1.2-1.9-2.7-1.9-4.5
	c0-1.8,0.6-3.3,1.9-4.5c1.2-1.2,2.8-1.7,4.7-1.7c2,0,3.6,0.6,4.8,1.8c1.2,1.2,1.8,2.7,1.8,4.5C256.6,231.9,255.9,233.4,254.7,234.6z
	"/>
</svg>
