<?xml version="1.0" encoding="utf-8"?>
<!-- Generator: Adobe Illustrator 22.1.0, SVG Export Plug-In . SVG Version: 6.00 Build 0)  -->
<svg version="1.1" id="Capa_1" xmlns="http://www.w3.org/2000/svg" xmlns:xlink="http://www.w3.org/1999/xlink" x="0px" y="0px"
	 viewBox="0 0 300 300" style="enable-background:new 0 0 300 300;" xml:space="preserve">
<style type="text/css">
	.st0{fill:#D6C424;}
	.st1{fill:#203C79;}
	.st2{fill:#EC1C2A;}
	.st3{fill:#02AFBF;}
	.st4{fill:#FFFFFF;}
	.st5{fill:#CECECE;}
	.st6{fill:#2D006D;}
	.st7{fill:#5713BA;}
</style>
<path class="st0" d="M15.2,78l5.1,2.1V45.9L11,68.2C9.5,72,11.3,76.5,15.2,78z M89.1,64L70.3,18.7c-1.2-2.8-3.9-4.6-6.9-4.7
	c-1,0-2,0.2-3,0.6L32.5,26.1c-2.8,1.2-4.6,3.9-4.7,6.8c0,1,0.2,2,0.6,3l18.8,45.4c1.2,2.9,4,4.6,6.9,4.7c1,0,2-0.2,2.9-0.6
	l27.9-11.6C88.8,72.3,90.6,67.8,89.1,64z M35.4,36.7c-2.1,0-3.8-1.7-3.8-3.8s1.7-3.8,3.8-3.8c2.1,0,3.8,1.7,3.8,3.8
	S37.5,36.7,35.4,36.7z M27.9,78.4c0,4.2,3.4,7.6,7.6,7.6h5.5L27.9,54.4V78.4z"/>
<path class="st1" d="M115.1,78l5.1,2.1V45.9L111,68.2C109.4,72,111.3,76.5,115.1,78z M189,64l-18.8-45.4c-1.2-2.8-3.9-4.6-6.9-4.7
	c-1,0-2,0.2-3,0.6l-27.9,11.6c-2.8,1.2-4.6,3.9-4.7,6.8c0,1,0.2,2,0.6,3l18.8,45.4c1.2,2.9,4,4.6,6.9,4.7c1,0,2-0.2,2.9-0.6
	l27.9-11.6C188.7,72.3,190.6,67.8,189,64z M135.4,36.7c-2.1,0-3.8-1.7-3.8-3.8s1.7-3.8,3.8-3.8s3.8,1.7,3.8,3.8
	S137.5,36.7,135.4,36.7z M127.8,78.4c0,4.2,3.4,7.6,7.6,7.6h5.5l-13.1-31.6V78.4z"/>
<path class="st2" d="M215.1,78l5.1,2.1V45.9l-9.2,22.2C209.4,72,211.2,76.5,215.1,78z M289,64l-18.8-45.4c-1.2-2.8-3.9-4.6-6.9-4.7
	c-1,0-2,0.2-3,0.6l-27.9,11.6c-2.8,1.2-4.6,3.9-4.7,6.8c0,1,0.2,2,0.6,3l18.8,45.4c1.2,2.9,4,4.6,6.9,4.7c1,0,2-0.2,2.9-0.6
	l27.9-11.6C288.7,72.3,290.5,67.8,289,64z M235.3,36.7c-2.1,0-3.8-1.7-3.8-3.8s1.7-3.8,3.8-3.8s3.8,1.7,3.8,3.8
	S237.4,36.7,235.3,36.7z M227.8,78.4c0,4.2,3.4,7.6,7.6,7.6h5.5l-13.1-31.6V78.4z"/>
<path class="st3" d="M15.2,178l5.1,2.1v-34.2L11,168.2C9.5,172,11.3,176.5,15.2,178z M89.1,164l-18.8-45.4c-1.2-2.8-3.9-4.6-6.9-4.7
	c-1,0-2,0.2-3,0.6l-27.9,11.6c-2.8,1.2-4.6,3.9-4.7,6.8c0,1,0.2,2,0.6,3l18.8,45.4c1.2,2.9,4,4.6,6.9,4.7c1,0,2-0.2,2.9-0.6
	l27.9-11.6C88.8,172.3,90.6,167.8,89.1,164z M35.4,136.7c-2.1,0-3.8-1.7-3.8-3.8s1.7-3.8,3.8-3.8c2.1,0,3.8,1.7,3.8,3.8
	S37.5,136.7,35.4,136.7z M27.9,178.4c0,4.2,3.4,7.6,7.6,7.6h5.5l-13.1-31.6V178.4z"/>
<path class="st4" d="M115.1,178l5.1,2.1v-34.2l-9.2,22.2C109.4,172,111.3,176.5,115.1,178z M189,164l-18.8-45.4
	c-1.2-2.8-3.9-4.6-6.9-4.7c-1,0-2,0.2-3,0.6l-27.9,11.6c-2.8,1.2-4.6,3.9-4.7,6.8c0,1,0.2,2,0.6,3l18.8,45.4c1.2,2.9,4,4.6,6.9,4.7
	c1,0,2-0.2,2.9-0.6l27.9-11.6C188.7,172.3,190.6,167.8,189,164z M135.4,136.7c-2.1,0-3.8-1.7-3.8-3.8s1.7-3.8,3.8-3.8
	s3.8,1.7,3.8,3.8S137.5,136.7,135.4,136.7z M127.8,178.4c0,4.2,3.4,7.6,7.6,7.6h5.5l-13.1-31.6V178.4z"/>
<path class="st5" d="M215.1,178l5.1,2.1v-34.2l-9.2,22.2C209.4,172,211.2,176.5,215.1,178z M289,164l-18.8-45.4
	c-1.2-2.8-3.9-4.6-6.9-4.7c-1,0-2,0.2-3,0.6l-27.9,11.6c-2.8,1.2-4.6,3.9-4.7,6.8c0,1,0.2,2,0.6,3l18.8,45.4c1.2,2.9,4,4.6,6.9,4.7
	c1,0,2-0.2,2.9-0.6l27.9-11.6C288.7,172.3,290.5,167.8,289,164z M235.3,136.7c-2.1,0-3.8-1.7-3.8-3.8s1.7-3.8,3.8-3.8
	s3.8,1.7,3.8,3.8S237.4,136.7,235.3,136.7z M227.8,178.4c0,4.2,3.4,7.6,7.6,7.6h5.5l-13.1-31.6V178.4z"/>
<path class="st6" d="M15.2,278l5.1,2.1v-34.2L11,268.2C9.5,272,11.3,276.5,15.2,278z M89.1,264l-18.8-45.4c-1.2-2.8-3.9-4.6-6.9-4.7
	c-1,0-2,0.2-3,0.6l-27.9,11.6c-2.8,1.2-4.6,3.9-4.7,6.8c0,1,0.2,2,0.6,3l18.8,45.4c1.2,2.9,4,4.6,6.9,4.7c1,0,2-0.2,2.9-0.6
	l27.9-11.6C88.8,272.3,90.6,267.8,89.1,264z M35.4,236.7c-2.1,0-3.8-1.7-3.8-3.8s1.7-3.8,3.8-3.8c2.1,0,3.8,1.7,3.8,3.8
	S37.5,236.7,35.4,236.7z M27.9,278.4c0,4.2,3.4,7.6,7.6,7.6h5.5l-13.1-31.6V278.4z"/>
<path class="st7" d="M115.1,278l5.1,2.1v-34.2l-9.2,22.2C109.4,272,111.3,276.5,115.1,278z M189,264l-18.8-45.4
	c-1.2-2.8-3.9-4.6-6.9-4.7c-1,0-2,0.2-3,0.6l-27.9,11.6c-2.8,1.2-4.6,3.9-4.7,6.8c0,1,0.2,2,0.6,3l18.8,45.4c1.2,2.9,4,4.6,6.9,4.7
	c1,0,2-0.2,2.9-0.6l27.9-11.6C188.7,272.3,190.6,267.8,189,264z M135.4,236.7c-2.1,0-3.8-1.7-3.8-3.8s1.7-3.8,3.8-3.8
	s3.8,1.7,3.8,3.8S137.5,236.7,135.4,236.7z M127.8,278.4c0,4.2,3.4,7.6,7.6,7.6h5.5l-13.1-31.6V278.4z"/>
<path d="M215.1,278l5.1,2.1v-34.2l-9.2,22.2C209.4,272,211.2,276.5,215.1,278z M289,264l-18.8-45.4c-1.2-2.8-3.9-4.6-6.9-4.7
	c-1,0-2,0.2-3,0.6l-27.9,11.6c-2.8,1.2-4.6,3.9-4.7,6.8c0,1,0.2,2,0.6,3l18.8,45.4c1.2,2.9,4,4.6,6.9,4.7c1,0,2-0.2,2.9-0.6
	l27.9-11.6C288.7,272.3,290.5,267.8,289,264z M235.3,236.7c-2.1,0-3.8-1.7-3.8-3.8s1.7-3.8,3.8-3.8s3.8,1.7,3.8,3.8
	S237.4,236.7,235.3,236.7z M227.8,278.4c0,4.2,3.4,7.6,7.6,7.6h5.5l-13.1-31.6V278.4z"/>
</svg>
