<?xml version="1.0" encoding="utf-8"?>
<!-- Generator: Adobe Illustrator 22.0.1, SVG Export Plug-In . SVG Version: 6.00 Build 0)  -->
<svg version="1.1" id="Capa_1" xmlns="http://www.w3.org/2000/svg" xmlns:xlink="http://www.w3.org/1999/xlink" x="0px" y="0px"
	 viewBox="0 0 300 300" style="enable-background:new 0 0 300 300;" xml:space="preserve">
<style type="text/css">
	.st0{fill:#FFFFFF;}
</style>
<path class="st0" d="M220.2,209.8c-47.3,0-85.6-38.3-85.6-85.6c0-30.6,16.1-57.5,40.3-72.6c-5.2-0.8-10.5-1.3-15.9-1.3
	c-55,0-99.7,44.6-99.7,99.7c0,55,44.6,99.7,99.7,99.7c33.7,0,63.5-16.7,81.5-42.4C234.1,208.9,227.2,209.8,220.2,209.8z"/>
<polygon class="st0" points="235.1,84.7 242.8,100.2 259.9,102.7 247.5,114.8 250.4,131.8 235.1,123.8 219.8,131.8 222.7,114.8 
	210.3,102.7 227.5,100.2 "/>
</svg>
